EESchema Schematic File Version 2
LIBS:power
LIBS:device
LIBS:transistors
LIBS:conn
LIBS:linear
LIBS:regul
LIBS:74xx
LIBS:cmos4000
LIBS:adc-dac
LIBS:memory
LIBS:xilinx
LIBS:special
LIBS:microcontrollers
LIBS:dsp
LIBS:microchip
LIBS:analog_switches
LIBS:motorola
LIBS:texas
LIBS:intel
LIBS:audio
LIBS:interface
LIBS:digital-audio
LIBS:philips
LIBS:display
LIBS:cypress
LIBS:siliconi
LIBS:opto
LIBS:atmel
LIBS:contrib
LIBS:valves
LIBS:aromix
LIBS:aromix-cache
EELAYER 27 0
EELAYER END
$Descr A4 11693 8268
encoding utf-8
Sheet 1 4
Title "Applix 1616 EPROM Card"
Date "24 oct 2017"
Rev "2.2"
Comp "JMOS"
Comment1 ""
Comment2 ""
Comment3 ""
Comment4 ""
$EndDescr
$Sheet
S 1750 3800 1350 1550
U 57CBCEC0
F0 "IO" 50
F1 "aromix-1.sch" 50
F2 "BD[0..15]" B R 3100 4500 60 
F3 "BRW" O R 3100 4200 60 
F4 "BRST" O R 3100 4400 60 
F5 "BAS" O R 3100 4300 60 
F6 "BA[1..23]" O R 3100 3900 60 
F7 "BLDS" O R 3100 4000 60 
F8 "BUDS" O R 3100 4100 60 
F9 "EXTDATCK" T R 3100 4800 60 
F10 "CLDS" I R 3100 4900 60 
F11 "CUDS" I R 3100 5000 60 
$EndSheet
$Sheet
S 7050 3800 1850 1450
U 57CBD697
F0 "EPROMS" 50
F1 "aromix-3.sch" 50
F2 "A[1..23]" I L 7050 3900 60 
F3 "ROM0" I L 7050 4100 60 
F4 "ROM1" I L 7050 4200 60 
F5 "ROM2" I L 7050 4300 60 
F6 "OE" I L 7050 4500 60 
F7 "ROM3" I L 7050 4400 60 
F8 "D[0..15]" B L 7050 4600 60 
$EndSheet
Wire Bus Line
	3100 3900 7050 3900
Wire Bus Line
	3400 3900 3400 1700
Wire Bus Line
	3400 1700 4400 1700
Wire Wire Line
	3100 4000 3500 4000
Wire Wire Line
	3500 4000 3500 1800
Wire Wire Line
	3500 1800 4400 1800
Wire Wire Line
	3100 4100 3600 4100
Wire Wire Line
	3600 4100 3600 1900
Wire Wire Line
	3600 1900 4400 1900
Wire Wire Line
	3100 4200 6100 4200
Wire Wire Line
	3700 4200 3700 2000
Wire Wire Line
	3700 2000 4400 2000
Wire Wire Line
	3100 4300 3800 4300
Wire Wire Line
	3800 4300 3800 2100
Wire Wire Line
	3800 2100 4400 2100
$Sheet
S 4400 1550 1200 1550
U 57CBD679
F0 "Decode" 50
F1 "aromix-2.sch" 50
F2 "A[0..23]" I L 4400 1700 60 
F3 "UDS" I L 4400 1900 60 
F4 "LDS" I L 4400 1800 60 
F5 "RW" I L 4400 2000 60 
F6 "AS" I L 4400 2100 60 
F7 "CUDS" O L 4400 2600 60 
F8 "CLDS" O L 4400 2500 60 
F9 "ROM0" O R 5600 2650 60 
F10 "ROM1" O R 5600 2750 60 
F11 "ROM2" O R 5600 2850 60 
F12 "ROM3" O R 5600 2950 60 
F13 "RESET" I L 4400 2200 60 
F14 "BD[0..7]" I L 4400 2300 60 
F15 "EXDTACK" T L 4400 2400 60 
$EndSheet
Wire Wire Line
	3100 4400 3900 4400
Wire Wire Line
	3900 4400 3900 2200
Wire Wire Line
	3900 2200 4400 2200
Wire Bus Line
	4400 2300 4000 2300
Wire Bus Line
	4000 2300 4000 4600
Wire Bus Line
	4000 4500 3100 4500
Wire Wire Line
	7050 4100 6300 4100
Wire Wire Line
	6300 4100 6300 2650
Wire Wire Line
	6300 2650 5600 2650
Wire Wire Line
	5600 2750 6250 2750
Wire Wire Line
	6250 2750 6250 4200
Wire Wire Line
	6250 4200 7050 4200
Wire Wire Line
	5600 2850 6200 2850
Wire Wire Line
	6200 2850 6200 4300
Wire Wire Line
	6200 4300 7050 4300
Wire Wire Line
	5600 2950 6150 2950
Wire Wire Line
	6150 2950 6150 4400
Wire Wire Line
	6150 4400 7050 4400
Wire Wire Line
	6100 4200 6100 4500
Wire Wire Line
	6100 4500 7050 4500
Connection ~ 3700 4200
Wire Bus Line
	4000 4600 7050 4600
Wire Wire Line
	4400 2400 4100 2400
Wire Wire Line
	4100 2400 4100 4800
Wire Wire Line
	4100 4800 3100 4800
Wire Wire Line
	4400 2500 4200 2500
Wire Wire Line
	4200 2500 4200 4900
Wire Wire Line
	4200 4900 3100 4900
Wire Wire Line
	4400 2600 4300 2600
Wire Wire Line
	4300 2600 4300 5000
Wire Wire Line
	4300 5000 3100 5000
$EndSCHEMATC
