EESchema Schematic File Version 2
LIBS:power
LIBS:device
LIBS:transistors
LIBS:conn
LIBS:linear
LIBS:regul
LIBS:74xx
LIBS:cmos4000
LIBS:adc-dac
LIBS:memory
LIBS:xilinx
LIBS:special
LIBS:microcontrollers
LIBS:dsp
LIBS:microchip
LIBS:analog_switches
LIBS:motorola
LIBS:texas
LIBS:intel
LIBS:audio
LIBS:interface
LIBS:digital-audio
LIBS:philips
LIBS:display
LIBS:cypress
LIBS:siliconi
LIBS:opto
LIBS:atmel
LIBS:contrib
LIBS:valves
LIBS:aromix
LIBS:aromix-cache
EELAYER 27 0
EELAYER END
$Descr A4 11693 8268
encoding utf-8
Sheet 3 4
Title "Applix 1616 EPROM Card"
Date "24 oct 2017"
Rev "2.2"
Comp "JMOS"
Comment1 ""
Comment2 ""
Comment3 ""
Comment4 ""
$EndDescr
$Comp
L 27C040 U3
U 1 1 596CD25B
P 4550 1800
F 0 "U3" H 4350 2800 50  0000 C CNN
F 1 "27C040" H 4550 400 50  0000 C CNN
F 2 "" H 4550 1800 50  0000 C CNN
F 3 "" H 4550 1800 50  0000 C CNN
	1    4550 1800
	1    0    0    -1  
$EndComp
$Comp
L 27C040 U4
U 1 1 596CD26A
P 4550 5600
F 0 "U4" H 4350 6600 50  0000 C CNN
F 1 "27C040" H 4550 4200 50  0000 C CNN
F 2 "" H 4550 5600 50  0000 C CNN
F 3 "" H 4550 5600 50  0000 C CNN
	1    4550 5600
	1    0    0    -1  
$EndComp
$Comp
L 27C040 U5
U 1 1 596CD279
P 6900 1800
F 0 "U5" H 6700 2800 50  0000 C CNN
F 1 "27C040" H 6900 400 50  0000 C CNN
F 2 "" H 6900 1800 50  0000 C CNN
F 3 "" H 6900 1800 50  0000 C CNN
	1    6900 1800
	1    0    0    -1  
$EndComp
$Comp
L 27C040 U6
U 1 1 596CD288
P 6900 5600
F 0 "U6" H 6700 6600 50  0000 C CNN
F 1 "27C040" H 6900 4200 50  0000 C CNN
F 2 "" H 6900 5600 50  0000 C CNN
F 3 "" H 6900 5600 50  0000 C CNN
	1    6900 5600
	1    0    0    -1  
$EndComp
$Comp
L 27C040 U7
U 1 1 596CD297
P 9250 1800
F 0 "U7" H 9050 2800 50  0000 C CNN
F 1 "27C040" H 9250 400 50  0000 C CNN
F 2 "" H 9250 1800 50  0000 C CNN
F 3 "" H 9250 1800 50  0000 C CNN
	1    9250 1800
	1    0    0    -1  
$EndComp
$Comp
L 27C040 U8
U 1 1 596CD2A6
P 9250 5600
F 0 "U8" H 9050 6600 50  0000 C CNN
F 1 "27C040" H 9250 4200 50  0000 C CNN
F 2 "" H 9250 5600 50  0000 C CNN
F 3 "" H 9250 5600 50  0000 C CNN
	1    9250 5600
	1    0    0    -1  
$EndComp
$Comp
L 27C040 U1
U 1 1 596CD2B5
P 2200 1800
F 0 "U1" H 2000 2800 50  0000 C CNN
F 1 "27C040" H 2200 400 50  0000 C CNN
F 2 "DIP32" H 2200 1800 50  0001 C CNN
F 3 "" H 2200 1800 50  0000 C CNN
	1    2200 1800
	1    0    0    -1  
$EndComp
$Comp
L 27C040 U2
U 1 1 596CD2C4
P 2200 5600
F 0 "U2" H 2000 6600 50  0000 C CNN
F 1 "27C040" H 2200 4200 50  0000 C CNN
F 2 "" H 2200 5600 50  0000 C CNN
F 3 "" H 2200 5600 50  0000 C CNN
	1    2200 5600
	1    0    0    -1  
$EndComp
Text HLabel 1000 600  0    60   Input ~ 0
A[1..23]
Wire Bus Line
	1000 600  8200 600 
Wire Bus Line
	1150 600  1150 6500
Entry Wire Line
	1150 4600 1250 4700
Entry Wire Line
	1150 4700 1250 4800
Entry Wire Line
	1150 4800 1250 4900
Entry Wire Line
	1150 4900 1250 5000
Entry Wire Line
	1150 5000 1250 5100
Entry Wire Line
	1150 5100 1250 5200
Entry Wire Line
	1150 5200 1250 5300
Entry Wire Line
	1150 5300 1250 5400
Entry Wire Line
	1150 5400 1250 5500
Entry Wire Line
	1150 5500 1250 5600
Entry Wire Line
	1150 5600 1250 5700
Entry Wire Line
	1150 5700 1250 5800
Entry Wire Line
	1150 5800 1250 5900
Entry Wire Line
	1150 5900 1250 6000
Entry Wire Line
	1150 6000 1250 6100
Entry Wire Line
	1150 6100 1250 6200
Entry Wire Line
	1150 6200 1250 6300
Entry Wire Line
	1150 6300 1250 6400
Entry Wire Line
	1150 6400 1250 6500
Entry Wire Line
	1150 6500 1250 6600
Entry Wire Line
	1150 800  1250 900 
Entry Wire Line
	1150 900  1250 1000
Entry Wire Line
	1150 1000 1250 1100
Entry Wire Line
	1150 1100 1250 1200
Entry Wire Line
	1150 1200 1250 1300
Entry Wire Line
	1150 1300 1250 1400
Entry Wire Line
	1150 1400 1250 1500
Entry Wire Line
	1150 1500 1250 1600
Entry Wire Line
	1150 1600 1250 1700
Entry Wire Line
	1150 1700 1250 1800
Entry Wire Line
	1150 1800 1250 1900
Entry Wire Line
	1150 1900 1250 2000
Entry Wire Line
	1150 2000 1250 2100
Entry Wire Line
	1150 2100 1250 2200
Entry Wire Line
	1150 2200 1250 2300
Entry Wire Line
	1150 2300 1250 2400
Entry Wire Line
	1150 2400 1250 2500
Entry Wire Line
	1150 2500 1250 2600
Entry Wire Line
	1150 2600 1250 2700
Entry Wire Line
	1150 2700 1250 2800
Wire Wire Line
	1250 900  1500 900 
Wire Wire Line
	1250 1000 1500 1000
Wire Wire Line
	1250 1100 1500 1100
Wire Wire Line
	1250 1200 1500 1200
Wire Wire Line
	1250 1300 1500 1300
Wire Wire Line
	1250 1400 1500 1400
Wire Wire Line
	1250 1500 1500 1500
Wire Wire Line
	1250 1600 1500 1600
Wire Wire Line
	1250 1700 1500 1700
Wire Wire Line
	1250 1800 1500 1800
Wire Wire Line
	1250 1900 1500 1900
Wire Wire Line
	1250 2000 1500 2000
Wire Wire Line
	1250 2100 1500 2100
Wire Wire Line
	1250 2200 1500 2200
Wire Wire Line
	1250 2300 1500 2300
Wire Wire Line
	1250 2400 1500 2400
Wire Wire Line
	1250 2500 1500 2500
Wire Wire Line
	1250 2600 1500 2600
Wire Wire Line
	1250 2700 1500 2700
Wire Wire Line
	1250 2800 1500 2800
Wire Wire Line
	1250 4700 1500 4700
Wire Wire Line
	1250 4800 1500 4800
Wire Wire Line
	1250 4900 1500 4900
Wire Wire Line
	1250 5000 1500 5000
Wire Wire Line
	1250 5100 1500 5100
Wire Wire Line
	1250 5200 1500 5200
Wire Wire Line
	1250 5300 1500 5300
Wire Wire Line
	1250 5400 1500 5400
Wire Wire Line
	1250 5500 1500 5500
Wire Wire Line
	1250 5600 1500 5600
Wire Wire Line
	1250 5700 1500 5700
Wire Wire Line
	1250 5800 1500 5800
Wire Wire Line
	1250 5900 1500 5900
Wire Wire Line
	1250 6000 1500 6000
Wire Wire Line
	1250 6100 1500 6100
Wire Wire Line
	1250 6200 1500 6200
Wire Wire Line
	1250 6300 1500 6300
Wire Wire Line
	1250 6400 1500 6400
Wire Wire Line
	1250 6500 1500 6500
Wire Wire Line
	1250 6600 1500 6600
Wire Bus Line
	3350 1000 3350 3500
Wire Bus Line
	3500 600  3500 2700
Wire Bus Line
	1150 4250 8200 4250
Wire Bus Line
	3500 4250 3500 6500
Wire Bus Line
	3350 7100 10650 7100
Wire Bus Line
	3350 4800 3350 7100
Entry Wire Line
	3250 900  3350 1000
Entry Wire Line
	3250 1000 3350 1100
Entry Wire Line
	3250 1100 3350 1200
Entry Wire Line
	3250 1200 3350 1300
Entry Wire Line
	3250 1300 3350 1400
Entry Wire Line
	3250 1400 3350 1500
Entry Wire Line
	3250 1500 3350 1600
Entry Wire Line
	3250 1600 3350 1700
Wire Wire Line
	3250 900  2900 900 
Wire Wire Line
	3250 1000 2900 1000
Wire Wire Line
	2900 1100 3250 1100
Wire Wire Line
	2900 1200 3250 1200
Wire Wire Line
	2900 1300 3250 1300
Wire Wire Line
	2900 1400 3250 1400
Wire Wire Line
	2900 1500 3250 1500
Wire Wire Line
	2900 1600 3250 1600
Entry Wire Line
	5600 900  5700 1000
Entry Wire Line
	5600 1000 5700 1100
Entry Wire Line
	5600 1100 5700 1200
Entry Wire Line
	5600 1200 5700 1300
Entry Wire Line
	5600 1300 5700 1400
Entry Wire Line
	5600 1400 5700 1500
Entry Wire Line
	5600 1500 5700 1600
Entry Wire Line
	5600 1600 5700 1700
Wire Wire Line
	5600 900  5250 900 
Wire Wire Line
	5600 1000 5250 1000
Wire Wire Line
	5250 1100 5600 1100
Wire Wire Line
	5250 1200 5600 1200
Wire Wire Line
	5250 1300 5600 1300
Wire Wire Line
	5250 1400 5600 1400
Wire Wire Line
	5250 1500 5600 1500
Wire Wire Line
	5250 1600 5600 1600
Entry Wire Line
	3500 800  3600 900 
Entry Wire Line
	3500 900  3600 1000
Entry Wire Line
	3500 1000 3600 1100
Entry Wire Line
	3500 1100 3600 1200
Entry Wire Line
	3500 1200 3600 1300
Entry Wire Line
	3500 1300 3600 1400
Entry Wire Line
	3500 1400 3600 1500
Entry Wire Line
	3500 1500 3600 1600
Entry Wire Line
	3500 1600 3600 1700
Entry Wire Line
	3500 1700 3600 1800
Entry Wire Line
	3500 1800 3600 1900
Entry Wire Line
	3500 1900 3600 2000
Entry Wire Line
	3500 2000 3600 2100
Entry Wire Line
	3500 2100 3600 2200
Entry Wire Line
	3500 2200 3600 2300
Entry Wire Line
	3500 2300 3600 2400
Entry Wire Line
	3500 2400 3600 2500
Entry Wire Line
	3500 2500 3600 2600
Entry Wire Line
	3500 2600 3600 2700
Entry Wire Line
	3500 2700 3600 2800
Wire Wire Line
	3600 900  3850 900 
Wire Wire Line
	3600 1000 3850 1000
Wire Wire Line
	3600 1100 3850 1100
Wire Wire Line
	3600 1200 3850 1200
Wire Wire Line
	3600 1300 3850 1300
Wire Wire Line
	3600 1400 3850 1400
Wire Wire Line
	3600 1500 3850 1500
Wire Wire Line
	3600 1600 3850 1600
Wire Wire Line
	3600 1700 3850 1700
Wire Wire Line
	3600 1800 3850 1800
Wire Wire Line
	3600 1900 3850 1900
Wire Wire Line
	3600 2000 3850 2000
Wire Wire Line
	3600 2100 3850 2100
Wire Wire Line
	3600 2200 3850 2200
Wire Wire Line
	3600 2300 3850 2300
Wire Wire Line
	3600 2400 3850 2400
Wire Wire Line
	3600 2500 3850 2500
Wire Wire Line
	3600 2600 3850 2600
Wire Wire Line
	3600 2700 3850 2700
Wire Wire Line
	3600 2800 3850 2800
Wire Bus Line
	5700 1000 5700 3500
Wire Bus Line
	5850 600  5850 2700
Entry Wire Line
	5850 800  5950 900 
Entry Wire Line
	5850 900  5950 1000
Entry Wire Line
	5850 1000 5950 1100
Entry Wire Line
	5850 1100 5950 1200
Entry Wire Line
	5850 1200 5950 1300
Entry Wire Line
	5850 1300 5950 1400
Entry Wire Line
	5850 1400 5950 1500
Entry Wire Line
	5850 1500 5950 1600
Entry Wire Line
	5850 1600 5950 1700
Entry Wire Line
	5850 1700 5950 1800
Entry Wire Line
	5850 1800 5950 1900
Entry Wire Line
	5850 1900 5950 2000
Entry Wire Line
	5850 2000 5950 2100
Entry Wire Line
	5850 2100 5950 2200
Entry Wire Line
	5850 2200 5950 2300
Entry Wire Line
	5850 2300 5950 2400
Entry Wire Line
	5850 2400 5950 2500
Entry Wire Line
	5850 2500 5950 2600
Entry Wire Line
	5850 2600 5950 2700
Entry Wire Line
	5850 2700 5950 2800
Wire Wire Line
	5950 900  6200 900 
Wire Wire Line
	5950 1000 6200 1000
Wire Wire Line
	5950 1100 6200 1100
Wire Wire Line
	5950 1200 6200 1200
Wire Wire Line
	5950 1300 6200 1300
Wire Wire Line
	5950 1400 6200 1400
Wire Wire Line
	5950 1500 6200 1500
Wire Wire Line
	5950 1600 6200 1600
Wire Wire Line
	5950 1700 6200 1700
Wire Wire Line
	5950 1800 6200 1800
Wire Wire Line
	5950 1900 6200 1900
Wire Wire Line
	5950 2000 6200 2000
Wire Wire Line
	5950 2100 6200 2100
Wire Wire Line
	5950 2200 6200 2200
Wire Wire Line
	5950 2300 6200 2300
Wire Wire Line
	5950 2400 6200 2400
Wire Wire Line
	5950 2500 6200 2500
Wire Wire Line
	5950 2600 6200 2600
Wire Wire Line
	5950 2700 6200 2700
Wire Wire Line
	5950 2800 6200 2800
Entry Wire Line
	7950 900  8050 1000
Entry Wire Line
	7950 1000 8050 1100
Entry Wire Line
	7950 1100 8050 1200
Entry Wire Line
	7950 1200 8050 1300
Entry Wire Line
	7950 1300 8050 1400
Entry Wire Line
	7950 1400 8050 1500
Entry Wire Line
	7950 1500 8050 1600
Entry Wire Line
	7950 1600 8050 1700
Wire Wire Line
	7950 900  7600 900 
Wire Wire Line
	7950 1000 7600 1000
Wire Wire Line
	7600 1100 7950 1100
Wire Wire Line
	7600 1200 7950 1200
Wire Wire Line
	7600 1300 7950 1300
Wire Wire Line
	7600 1400 7950 1400
Wire Wire Line
	7600 1500 7950 1500
Wire Wire Line
	7600 1600 7950 1600
Wire Bus Line
	8050 1000 8050 3500
Wire Bus Line
	8200 600  8200 2700
Entry Wire Line
	8200 800  8300 900 
Entry Wire Line
	8200 900  8300 1000
Entry Wire Line
	8200 1000 8300 1100
Entry Wire Line
	8200 1100 8300 1200
Entry Wire Line
	8200 1200 8300 1300
Entry Wire Line
	8200 1300 8300 1400
Entry Wire Line
	8200 1400 8300 1500
Entry Wire Line
	8200 1500 8300 1600
Entry Wire Line
	8200 1600 8300 1700
Entry Wire Line
	8200 1700 8300 1800
Entry Wire Line
	8200 1800 8300 1900
Entry Wire Line
	8200 1900 8300 2000
Entry Wire Line
	8200 2000 8300 2100
Entry Wire Line
	8200 2100 8300 2200
Entry Wire Line
	8200 2200 8300 2300
Entry Wire Line
	8200 2300 8300 2400
Entry Wire Line
	8200 2400 8300 2500
Entry Wire Line
	8200 2500 8300 2600
Entry Wire Line
	8200 2600 8300 2700
Entry Wire Line
	8200 2700 8300 2800
Wire Wire Line
	8300 900  8550 900 
Wire Wire Line
	8300 1000 8550 1000
Wire Wire Line
	8300 1100 8550 1100
Wire Wire Line
	8300 1200 8550 1200
Wire Wire Line
	8300 1300 8550 1300
Wire Wire Line
	8300 1400 8550 1400
Wire Wire Line
	8300 1500 8550 1500
Wire Wire Line
	8300 1600 8550 1600
Wire Wire Line
	8300 1700 8550 1700
Wire Wire Line
	8300 1800 8550 1800
Wire Wire Line
	8300 1900 8550 1900
Wire Wire Line
	8300 2000 8550 2000
Wire Wire Line
	8300 2100 8550 2100
Wire Wire Line
	8300 2200 8550 2200
Wire Wire Line
	8300 2300 8550 2300
Wire Wire Line
	8300 2400 8550 2400
Wire Wire Line
	8300 2500 8550 2500
Wire Wire Line
	8300 2600 8550 2600
Wire Wire Line
	8300 2700 8550 2700
Wire Wire Line
	8300 2800 8550 2800
Entry Wire Line
	10300 900  10400 1000
Entry Wire Line
	10300 1000 10400 1100
Entry Wire Line
	10300 1100 10400 1200
Entry Wire Line
	10300 1200 10400 1300
Entry Wire Line
	10300 1300 10400 1400
Entry Wire Line
	10300 1400 10400 1500
Entry Wire Line
	10300 1500 10400 1600
Entry Wire Line
	10300 1600 10400 1700
Wire Wire Line
	10300 900  9950 900 
Wire Wire Line
	10300 1000 9950 1000
Wire Wire Line
	9950 1100 10300 1100
Wire Wire Line
	9950 1200 10300 1200
Wire Wire Line
	9950 1300 10300 1300
Wire Wire Line
	9950 1400 10300 1400
Wire Wire Line
	9950 1500 10300 1500
Wire Wire Line
	9950 1600 10300 1600
Wire Bus Line
	10400 3600 10400 7100
Entry Wire Line
	3250 4700 3350 4800
Entry Wire Line
	3250 4800 3350 4900
Entry Wire Line
	3250 4900 3350 5000
Entry Wire Line
	3250 5000 3350 5100
Entry Wire Line
	3250 5100 3350 5200
Entry Wire Line
	3250 5200 3350 5300
Entry Wire Line
	3250 5300 3350 5400
Entry Wire Line
	3250 5400 3350 5500
Wire Wire Line
	3250 4700 2900 4700
Wire Wire Line
	3250 4800 2900 4800
Wire Wire Line
	2900 4900 3250 4900
Wire Wire Line
	2900 5000 3250 5000
Wire Wire Line
	2900 5100 3250 5100
Wire Wire Line
	2900 5200 3250 5200
Wire Wire Line
	2900 5300 3250 5300
Wire Wire Line
	2900 5400 3250 5400
Entry Wire Line
	3500 4600 3600 4700
Entry Wire Line
	3500 4700 3600 4800
Entry Wire Line
	3500 4800 3600 4900
Entry Wire Line
	3500 4900 3600 5000
Entry Wire Line
	3500 5000 3600 5100
Entry Wire Line
	3500 5100 3600 5200
Entry Wire Line
	3500 5200 3600 5300
Entry Wire Line
	3500 5300 3600 5400
Entry Wire Line
	3500 5400 3600 5500
Entry Wire Line
	3500 5500 3600 5600
Entry Wire Line
	3500 5600 3600 5700
Entry Wire Line
	3500 5700 3600 5800
Entry Wire Line
	3500 5800 3600 5900
Entry Wire Line
	3500 5900 3600 6000
Entry Wire Line
	3500 6000 3600 6100
Entry Wire Line
	3500 6100 3600 6200
Entry Wire Line
	3500 6200 3600 6300
Entry Wire Line
	3500 6300 3600 6400
Entry Wire Line
	3500 6400 3600 6500
Entry Wire Line
	3500 6500 3600 6600
Wire Wire Line
	3600 4700 3850 4700
Wire Wire Line
	3600 4800 3850 4800
Wire Wire Line
	3600 4900 3850 4900
Wire Wire Line
	3600 5000 3850 5000
Wire Wire Line
	3600 5100 3850 5100
Wire Wire Line
	3600 5200 3850 5200
Wire Wire Line
	3600 5300 3850 5300
Wire Wire Line
	3600 5400 3850 5400
Wire Wire Line
	3600 5500 3850 5500
Wire Wire Line
	3600 5600 3850 5600
Wire Wire Line
	3600 5700 3850 5700
Wire Wire Line
	3600 5800 3850 5800
Wire Wire Line
	3600 5900 3850 5900
Wire Wire Line
	3600 6000 3850 6000
Wire Wire Line
	3600 6100 3850 6100
Wire Wire Line
	3600 6200 3850 6200
Wire Wire Line
	3600 6300 3850 6300
Wire Wire Line
	3600 6400 3850 6400
Wire Wire Line
	3600 6500 3850 6500
Wire Wire Line
	3600 6600 3850 6600
Entry Wire Line
	5600 4700 5700 4800
Entry Wire Line
	5600 4800 5700 4900
Entry Wire Line
	5600 4900 5700 5000
Entry Wire Line
	5600 5000 5700 5100
Entry Wire Line
	5600 5100 5700 5200
Entry Wire Line
	5600 5200 5700 5300
Entry Wire Line
	5600 5300 5700 5400
Entry Wire Line
	5600 5400 5700 5500
Wire Wire Line
	5600 4700 5250 4700
Wire Wire Line
	5600 4800 5250 4800
Wire Wire Line
	5250 4900 5600 4900
Wire Wire Line
	5250 5000 5600 5000
Wire Wire Line
	5250 5100 5600 5100
Wire Wire Line
	5250 5200 5600 5200
Wire Wire Line
	5250 5300 5600 5300
Wire Wire Line
	5250 5400 5600 5400
Wire Bus Line
	5700 4800 5700 7100
Wire Bus Line
	5850 4250 5850 6500
Entry Wire Line
	5850 4600 5950 4700
Entry Wire Line
	5850 4700 5950 4800
Entry Wire Line
	5850 4800 5950 4900
Entry Wire Line
	5850 4900 5950 5000
Entry Wire Line
	5850 5000 5950 5100
Entry Wire Line
	5850 5100 5950 5200
Entry Wire Line
	5850 5200 5950 5300
Entry Wire Line
	5850 5300 5950 5400
Entry Wire Line
	5850 5400 5950 5500
Entry Wire Line
	5850 5500 5950 5600
Entry Wire Line
	5850 5600 5950 5700
Entry Wire Line
	5850 5700 5950 5800
Entry Wire Line
	5850 5800 5950 5900
Entry Wire Line
	5850 5900 5950 6000
Entry Wire Line
	5850 6000 5950 6100
Entry Wire Line
	5850 6100 5950 6200
Entry Wire Line
	5850 6200 5950 6300
Entry Wire Line
	5850 6300 5950 6400
Entry Wire Line
	5850 6400 5950 6500
Entry Wire Line
	5850 6500 5950 6600
Wire Wire Line
	5950 4700 6200 4700
Wire Wire Line
	5950 4800 6200 4800
Wire Wire Line
	5950 4900 6200 4900
Wire Wire Line
	5950 5000 6200 5000
Wire Wire Line
	5950 5100 6200 5100
Wire Wire Line
	5950 5200 6200 5200
Wire Wire Line
	5950 5300 6200 5300
Wire Wire Line
	5950 5400 6200 5400
Wire Wire Line
	5950 5500 6200 5500
Wire Wire Line
	5950 5600 6200 5600
Wire Wire Line
	5950 5700 6200 5700
Wire Wire Line
	5950 5800 6200 5800
Wire Wire Line
	5950 5900 6200 5900
Wire Wire Line
	5950 6000 6200 6000
Wire Wire Line
	5950 6100 6200 6100
Wire Wire Line
	5950 6200 6200 6200
Wire Wire Line
	5950 6300 6200 6300
Wire Wire Line
	5950 6400 6200 6400
Wire Wire Line
	5950 6500 6200 6500
Wire Wire Line
	5950 6600 6200 6600
Entry Wire Line
	7950 4700 8050 4800
Entry Wire Line
	7950 4800 8050 4900
Entry Wire Line
	7950 4900 8050 5000
Entry Wire Line
	7950 5000 8050 5100
Entry Wire Line
	7950 5100 8050 5200
Entry Wire Line
	7950 5200 8050 5300
Entry Wire Line
	7950 5300 8050 5400
Entry Wire Line
	7950 5400 8050 5500
Wire Wire Line
	7950 4700 7600 4700
Wire Wire Line
	7950 4800 7600 4800
Wire Wire Line
	7600 4900 7950 4900
Wire Wire Line
	7600 5000 7950 5000
Wire Wire Line
	7600 5100 7950 5100
Wire Wire Line
	7600 5200 7950 5200
Wire Wire Line
	7600 5300 7950 5300
Wire Wire Line
	7600 5400 7950 5400
Wire Bus Line
	8050 4800 8050 7100
Wire Bus Line
	8200 4250 8200 6500
Entry Wire Line
	8200 4600 8300 4700
Entry Wire Line
	8200 4700 8300 4800
Entry Wire Line
	8200 4800 8300 4900
Entry Wire Line
	8200 4900 8300 5000
Entry Wire Line
	8200 5000 8300 5100
Entry Wire Line
	8200 5100 8300 5200
Entry Wire Line
	8200 5200 8300 5300
Entry Wire Line
	8200 5300 8300 5400
Entry Wire Line
	8200 5400 8300 5500
Entry Wire Line
	8200 5500 8300 5600
Entry Wire Line
	8200 5600 8300 5700
Entry Wire Line
	8200 5700 8300 5800
Entry Wire Line
	8200 5800 8300 5900
Entry Wire Line
	8200 5900 8300 6000
Entry Wire Line
	8200 6000 8300 6100
Entry Wire Line
	8200 6100 8300 6200
Entry Wire Line
	8200 6200 8300 6300
Entry Wire Line
	8200 6300 8300 6400
Entry Wire Line
	8200 6400 8300 6500
Entry Wire Line
	8200 6500 8300 6600
Wire Wire Line
	8300 4700 8550 4700
Wire Wire Line
	8300 4800 8550 4800
Wire Wire Line
	8300 4900 8550 4900
Wire Wire Line
	8300 5000 8550 5000
Wire Wire Line
	8300 5100 8550 5100
Wire Wire Line
	8300 5200 8550 5200
Wire Wire Line
	8300 5300 8550 5300
Wire Wire Line
	8300 5400 8550 5400
Wire Wire Line
	8300 5500 8550 5500
Wire Wire Line
	8300 5600 8550 5600
Wire Wire Line
	8300 5700 8550 5700
Wire Wire Line
	8300 5800 8550 5800
Wire Wire Line
	8300 5900 8550 5900
Wire Wire Line
	8300 6000 8550 6000
Wire Wire Line
	8300 6100 8550 6100
Wire Wire Line
	8300 6200 8550 6200
Wire Wire Line
	8300 6300 8550 6300
Wire Wire Line
	8300 6400 8550 6400
Wire Wire Line
	8300 6500 8550 6500
Wire Wire Line
	8300 6600 8550 6600
Entry Wire Line
	10300 4700 10400 4800
Entry Wire Line
	10300 4800 10400 4900
Entry Wire Line
	10300 4900 10400 5000
Entry Wire Line
	10300 5000 10400 5100
Entry Wire Line
	10300 5100 10400 5200
Entry Wire Line
	10300 5200 10400 5300
Entry Wire Line
	10300 5300 10400 5400
Entry Wire Line
	10300 5400 10400 5500
Wire Wire Line
	10300 4700 9950 4700
Wire Wire Line
	10300 4800 9950 4800
Wire Wire Line
	9950 4900 10300 4900
Wire Wire Line
	9950 5000 10300 5000
Wire Wire Line
	9950 5100 10300 5100
Wire Wire Line
	9950 5200 10300 5200
Wire Wire Line
	9950 5300 10300 5300
Wire Wire Line
	9950 5400 10300 5400
Wire Wire Line
	8550 3100 8300 3100
Wire Wire Line
	8300 3100 8300 3700
Wire Wire Line
	8300 3700 1000 3700
Wire Wire Line
	6200 3100 5950 3100
Wire Wire Line
	5950 3100 5950 3700
Connection ~ 5950 3700
Wire Wire Line
	3850 3100 3600 3100
Wire Wire Line
	3600 3100 3600 3700
Connection ~ 3600 3700
Wire Wire Line
	1500 3100 1250 3100
Wire Wire Line
	1250 3100 1250 3700
Connection ~ 1250 3700
Wire Wire Line
	8550 6900 8400 6900
Wire Wire Line
	8400 6900 8400 7150
Wire Wire Line
	8400 7150 1100 7150
Wire Wire Line
	1500 6900 1250 6900
Wire Wire Line
	1250 6900 1250 7150
Connection ~ 1250 7150
Wire Wire Line
	3850 6900 3600 6900
Wire Wire Line
	3600 6900 3600 7150
Connection ~ 3600 7150
Wire Wire Line
	6200 6900 6050 6900
Wire Wire Line
	6050 6900 6050 7150
Connection ~ 6050 7150
Wire Wire Line
	1000 3000 1500 3000
Wire Wire Line
	3850 3000 3400 3000
Wire Wire Line
	3400 3000 3400 6800
Wire Wire Line
	3400 6800 3850 6800
Wire Wire Line
	6200 3000 5750 3000
Wire Wire Line
	5750 3000 5750 6800
Wire Wire Line
	5750 6800 6200 6800
Wire Wire Line
	8100 6800 8550 6800
Wire Wire Line
	8100 3000 8100 6800
Wire Wire Line
	8100 3000 8550 3000
Wire Wire Line
	1500 6800 1050 6800
Wire Wire Line
	1050 6800 1050 3000
Connection ~ 1050 3000
Wire Wire Line
	3400 3300 1000 3300
Connection ~ 3400 3300
Wire Wire Line
	5750 3600 1000 3600
Connection ~ 5750 3600
Wire Wire Line
	8100 3800 1000 3800
Connection ~ 8100 3800
Text HLabel 1000 3000 0    60   Input ~ 0
ROM0
Text HLabel 1000 3300 0    60   Input ~ 0
ROM1
Text HLabel 1000 3600 0    60   Input ~ 0
ROM2
Text HLabel 1000 3700 0    60   Input ~ 0
OE
Text HLabel 1000 3800 0    60   Input ~ 0
ROM3
Wire Wire Line
	1100 7150 1100 3700
Connection ~ 1100 3700
Entry Bus Bus
	10300 3500 10400 3400
Entry Bus Bus
	10400 3600 10500 3500
Wire Bus Line
	10400 1000 10400 3400
Wire Bus Line
	3350 3500 10600 3500
Text HLabel 10600 3500 2    60   BiDi ~ 0
D[0..15]
Text Label 10100 900  0    60   ~ 0
D8
Text Label 10150 4700 0    60   ~ 0
D0
Text Label 10150 4800 0    60   ~ 0
D1
Text Label 10150 4900 0    60   ~ 0
D2
Text Label 10150 5000 0    60   ~ 0
D3
Text Label 10150 5100 0    60   ~ 0
D4
Text Label 10150 5200 0    60   ~ 0
D5
Text Label 10150 5300 0    60   ~ 0
D6
Text Label 10150 5400 0    60   ~ 0
D7
Text Label 10100 1000 0    60   ~ 0
D9
Text Label 10100 1100 0    60   ~ 0
D10
Text Label 10100 1200 0    60   ~ 0
D11
Text Label 10100 1300 0    60   ~ 0
D12
Text Label 10100 1400 0    60   ~ 0
D13
Text Label 10100 1500 0    60   ~ 0
D14
Text Label 10100 1600 0    60   ~ 0
D15
$EndSCHEMATC
