EESchema Schematic File Version 2
LIBS:power
LIBS:device
LIBS:transistors
LIBS:conn
LIBS:linear
LIBS:regul
LIBS:74xx
LIBS:cmos4000
LIBS:adc-dac
LIBS:memory
LIBS:xilinx
LIBS:special
LIBS:microcontrollers
LIBS:dsp
LIBS:microchip
LIBS:analog_switches
LIBS:motorola
LIBS:texas
LIBS:intel
LIBS:audio
LIBS:interface
LIBS:digital-audio
LIBS:philips
LIBS:display
LIBS:cypress
LIBS:siliconi
LIBS:opto
LIBS:atmel
LIBS:contrib
LIBS:valves
LIBS:aromix
LIBS:aromix-cache
EELAYER 27 0
EELAYER END
$Descr A4 11693 8268
encoding utf-8
Sheet 4 4
Title "Applix 1616 EPROM Card"
Date "24 oct 2017"
Rev "2.2"
Comp "JMOS"
Comment1 ""
Comment2 ""
Comment3 ""
Comment4 ""
$EndDescr
$Comp
L PAL16L8 U13
U 1 1 5803639B
P 8050 1450
F 0 "U13" H 8100 2000 60  0000 C CNN
F 1 "PAL16L8" H 8100 900 60  0000 C CNN
F 2 "" H 8050 1450 60  0000 C CNN
F 3 "" H 8050 1450 60  0000 C CNN
	1    8050 1450
	1    0    0    -1  
$EndComp
Text HLabel 1100 750  0    60   Input ~ 0
A[0..23]
Wire Bus Line
	1100 750  10850 750 
Wire Bus Line
	1350 750  1350 4800
Entry Wire Line
	1350 900  1450 1000
Wire Wire Line
	7450 1000 1450 1000
Text Label 1500 1000 0    60   ~ 0
A17
$Comp
L 74LS139 U12
U 1 1 580368FC
P 3300 2550
F 0 "U12" H 2900 3000 60  0000 C CNN
F 1 "74LS139" H 2950 2100 60  0000 C CNN
F 2 "~" H 3300 2550 60  0000 C CNN
F 3 "~" H 3300 2550 60  0000 C CNN
	1    3300 2550
	1    0    0    -1  
$EndComp
$Comp
L 74LS139 U12
U 2 1 58036917
P 3300 3800
F 0 "U12" H 3200 4000 60  0000 C CNN
F 1 "74LS139" H 3250 3750 60  0000 C CNN
F 2 "~" H 3300 3800 60  0000 C CNN
F 3 "~" H 3300 3800 60  0000 C CNN
	2    3300 3800
	1    0    0    -1  
$EndComp
$Comp
L CONN_4X2 JP14
U 1 1 5803696B
P 4750 3800
F 0 "JP14" H 4750 4050 50  0000 C CNN
F 1 "CONN_4X2" V 4750 3800 40  0000 C CNN
F 2 "" H 4750 3800 60  0000 C CNN
F 3 "" H 4750 3800 60  0000 C CNN
	1    4750 3800
	1    0    0    -1  
$EndComp
$Comp
L CONN_2X2 JP13
U 1 1 5803697A
P 4750 2800
F 0 "JP13" H 4750 2950 50  0000 C CNN
F 1 "CONN_2X2" H 4760 2670 40  0000 C CNN
F 2 "" H 4750 2800 60  0000 C CNN
F 3 "" H 4750 2800 60  0000 C CNN
	1    4750 2800
	-1   0    0    -1  
$EndComp
$Comp
L 74LS273 U11
U 1 1 58036998
P 8550 5850
F 0 "U11" H 8300 6450 60  0000 C CNN
F 1 "74LS273" H 8350 5250 60  0000 C CNN
F 2 "~" H 8550 5850 60  0000 C CNN
F 3 "~" H 8550 5850 60  0000 C CNN
	1    8550 5850
	-1   0    0    -1  
$EndComp
$Comp
L 74LS157 U10
U 1 1 580369C0
P 8800 2850
F 0 "U10" H 8850 3000 60  0000 C CNN
F 1 "74LS157" H 8850 2700 60  0000 C CNN
F 2 "~" H 8800 2850 60  0000 C CNN
F 3 "~" H 8800 2850 60  0000 C CNN
	1    8800 2850
	-1   0    0    -1  
$EndComp
Text HLabel 1850 1200 0    60   Input ~ 0
UDS
Text HLabel 1850 1300 0    60   Input ~ 0
LDS
Text HLabel 1850 1400 0    60   Input ~ 0
RW
Wire Bus Line
	10450 5200 10450 5950
Wire Bus Line
	10450 5950 10550 5950
Text HLabel 10550 5950 2    60   Input ~ 0
BD[0..7]
Entry Wire Line
	10450 5250 10350 5350
Entry Wire Line
	10450 5350 10350 5450
Entry Wire Line
	10450 5450 10350 5550
Entry Wire Line
	10450 5550 10350 5650
Entry Wire Line
	10450 5650 10350 5750
Entry Wire Line
	10450 5750 10350 5850
Entry Wire Line
	10450 5850 10350 5950
Entry Wire Line
	10450 5950 10350 6050
Wire Wire Line
	9250 5350 10350 5350
Wire Wire Line
	9250 5450 10350 5450
Wire Wire Line
	9250 5550 10350 5550
Wire Wire Line
	9250 5650 10350 5650
Wire Wire Line
	9250 5750 10350 5750
Wire Wire Line
	9250 5850 10350 5850
Wire Wire Line
	9250 5950 10350 5950
Wire Wire Line
	9250 6050 10350 6050
Text Label 10250 5350 2    60   ~ 0
BD0
Text Label 10250 5450 2    60   ~ 0
BD1
Text Label 10250 5550 2    60   ~ 0
BD2
Text Label 10250 5650 2    60   ~ 0
BD3
Text Label 10250 5750 2    60   ~ 0
BD4
Text Label 10250 5850 2    60   ~ 0
BD5
Text Label 10250 5950 2    60   ~ 0
BD6
Text Label 10250 6050 2    60   ~ 0
BD7
$Comp
L 74LS139 U9
U 1 1 59E361FE
P 3300 6200
F 0 "U9" H 3300 6300 60  0000 C CNN
F 1 "74LS139" H 3300 6100 60  0000 C CNN
F 2 "~" H 3300 6200 60  0000 C CNN
F 3 "~" H 3300 6200 60  0000 C CNN
	1    3300 6200
	-1   0    0    -1  
$EndComp
$Comp
L 74LS139 U9
U 2 1 59E3620D
P 3300 5000
F 0 "U9" H 3300 5100 60  0000 C CNN
F 1 "74LS139" H 3300 4900 60  0000 C CNN
F 2 "~" H 3300 5000 60  0000 C CNN
F 3 "~" H 3300 5000 60  0000 C CNN
	2    3300 5000
	1    0    0    -1  
$EndComp
Wire Wire Line
	6650 1100 6650 2200
Wire Wire Line
	6650 1100 7450 1100
Wire Wire Line
	6650 2200 7900 2200
Wire Wire Line
	7450 1200 1850 1200
Wire Wire Line
	1850 1300 7450 1300
Wire Wire Line
	1850 1400 7450 1400
Wire Wire Line
	5600 5750 7850 5750
Wire Wire Line
	5600 1500 5600 5750
Wire Wire Line
	5600 1500 7450 1500
$Comp
L CONN_4X2 JP10
U 1 1 59E36E67
P 4750 5000
F 0 "JP10" H 4750 5250 50  0000 C CNN
F 1 "CONN_4X2" V 4750 5000 40  0000 C CNN
F 2 "" H 4750 5000 60  0000 C CNN
F 3 "" H 4750 5000 60  0000 C CNN
	1    4750 5000
	1    0    0    -1  
$EndComp
Wire Wire Line
	5400 1600 7450 1600
Wire Wire Line
	5400 1600 5400 5150
Wire Wire Line
	5400 5150 5150 5150
Entry Wire Line
	1350 1600 1450 1700
Wire Wire Line
	1450 1700 7450 1700
Text Label 1500 1700 0    60   ~ 0
A16
Entry Wire Line
	1350 1700 1450 1800
Wire Wire Line
	7450 1800 1450 1800
Text Label 1500 1800 0    60   ~ 0
A15
Entry Wire Line
	1350 1800 1450 1900
Wire Wire Line
	7450 1900 1450 1900
Text Label 1500 1900 0    60   ~ 0
A14
Text Label 6900 1500 0    60   ~ 0
OP4
Text HLabel 1800 2800 0    60   Input ~ 0
AS
Wire Wire Line
	2450 2800 1800 2800
Entry Wire Line
	1350 2350 1450 2450
Entry Wire Line
	1350 2200 1450 2300
Wire Wire Line
	1450 2300 2450 2300
Wire Wire Line
	2450 2450 1450 2450
Text Label 1500 2300 0    60   ~ 0
A23
Text Label 1500 2450 0    60   ~ 0
A22
Wire Wire Line
	4350 2850 4150 2850
Wire Wire Line
	4350 2750 4250 2750
Wire Wire Line
	4250 2750 4250 2650
Wire Wire Line
	4250 2650 4150 2650
Wire Wire Line
	5150 2750 5250 2750
Wire Wire Line
	5250 2750 5250 3150
Wire Wire Line
	5250 3150 2000 3150
Wire Wire Line
	2000 3150 2000 4050
Wire Wire Line
	2000 4050 2450 4050
Wire Wire Line
	5150 2850 5250 2850
Connection ~ 5250 2850
Entry Wire Line
	1350 3450 1450 3550
Entry Wire Line
	1350 3600 1450 3700
Wire Wire Line
	2450 3550 1450 3550
Wire Wire Line
	2450 3700 1450 3700
Text Label 1500 3550 0    60   ~ 0
A21
Text Label 1500 3700 0    60   ~ 0
A20
Wire Wire Line
	4350 3650 4300 3650
Wire Wire Line
	4300 3650 4300 3500
Wire Wire Line
	4300 3500 4150 3500
Wire Wire Line
	4350 3750 4250 3750
Wire Wire Line
	4250 3750 4250 3700
Wire Wire Line
	4250 3700 4150 3700
Wire Wire Line
	4350 3850 4250 3850
Wire Wire Line
	4250 3850 4250 3900
Wire Wire Line
	4250 3900 4150 3900
Wire Wire Line
	4350 3950 4300 3950
Wire Wire Line
	4300 3950 4300 4100
Wire Wire Line
	4300 4100 4150 4100
Wire Wire Line
	5150 3650 5250 3650
Wire Wire Line
	5250 3650 5250 4400
Wire Wire Line
	2000 4400 7800 4400
Wire Wire Line
	2000 4400 2000 5250
Wire Wire Line
	2000 5250 2450 5250
Entry Wire Line
	1350 4800 1450 4900
Entry Wire Line
	1350 4650 1450 4750
Wire Wire Line
	2450 4750 1450 4750
Wire Wire Line
	1450 4900 2450 4900
Text Label 1500 4750 0    60   ~ 0
A19
Text Label 1500 4900 0    60   ~ 0
A18
Wire Wire Line
	4350 4850 4300 4850
Wire Wire Line
	4300 4850 4300 4700
Wire Wire Line
	4300 4700 4150 4700
Wire Wire Line
	4350 4950 4250 4950
Wire Wire Line
	4250 4950 4250 4900
Wire Wire Line
	4250 4900 4150 4900
Wire Wire Line
	4350 5050 4250 5050
Wire Wire Line
	4250 5050 4250 5100
Wire Wire Line
	4250 5100 4150 5100
Wire Wire Line
	4350 5150 4300 5150
Wire Wire Line
	4300 5150 4300 5300
Wire Wire Line
	4300 5300 4150 5300
Wire Wire Line
	5150 3750 5250 3750
Connection ~ 5250 3750
Wire Wire Line
	5150 3850 5250 3850
Connection ~ 5250 3850
Wire Wire Line
	5150 3950 5250 3950
Connection ~ 5250 3950
Wire Wire Line
	5150 4850 5400 4850
Connection ~ 5400 4850
Wire Wire Line
	5150 4950 5400 4950
Connection ~ 5400 4950
Wire Wire Line
	5150 5050 5400 5050
Connection ~ 5400 5050
Text Label 6900 1600 0    60   ~ 0
PAGESEL
$Comp
L CONN_2X2 JP12
U 1 1 59E38C19
P 8550 6650
F 0 "JP12" H 8550 6800 50  0000 C CNN
F 1 "CONN_2X2" H 8560 6520 40  0000 C CNN
F 2 "" H 8550 6650 60  0000 C CNN
F 3 "" H 8550 6650 60  0000 C CNN
	1    8550 6650
	-1   0    0    -1  
$EndComp
$Comp
L CONN_4X2 JP11
U 1 1 59E38C2B
P 9700 4250
F 0 "JP11" H 9700 4500 50  0000 C CNN
F 1 "CONN_4X2" V 9700 4250 40  0000 C CNN
F 2 "" H 9700 4250 60  0000 C CNN
F 3 "" H 9700 4250 60  0000 C CNN
	1    9700 4250
	-1   0    0    -1  
$EndComp
$Comp
L GND #PWR010
U 1 1 59E38C49
P 9700 3850
F 0 "#PWR010" H 9700 3850 30  0001 C CNN
F 1 "GND" H 9700 3780 30  0001 C CNN
F 2 "" H 9700 3850 60  0000 C CNN
F 3 "" H 9700 3850 60  0000 C CNN
	1    9700 3850
	1    0    0    -1  
$EndComp
Wire Wire Line
	9550 3400 9700 3400
Wire Wire Line
	9700 3400 9700 3850
Wire Wire Line
	9550 3300 10250 3300
Wire Wire Line
	10250 3300 10250 4400
Wire Wire Line
	10250 4400 10100 4400
Wire Wire Line
	10100 4300 10250 4300
Connection ~ 10250 4300
Wire Wire Line
	10100 4200 10250 4200
Connection ~ 10250 4200
Wire Wire Line
	10100 4100 10250 4100
Connection ~ 10250 4100
Wire Bus Line
	10850 750  10850 3150
Entry Wire Line
	10750 2300 10850 2200
Entry Wire Line
	10750 2550 10850 2450
Wire Wire Line
	10750 2300 9550 2300
Wire Wire Line
	10750 2550 9550 2550
Text Label 10400 2300 0    60   ~ 0
A19
Text Label 10400 2550 0    60   ~ 0
A18
Text HLabel 10100 1000 2    60   3State ~ 0
EXDTACK
Wire Wire Line
	8650 1000 10100 1000
Text HLabel 10100 1100 2    60   Output ~ 0
CUDS
Text HLabel 10100 1200 2    60   Output ~ 0
CLDS
Text HLabel 10100 1300 2    60   Output ~ 0
RW
Wire Wire Line
	8650 1100 10100 1100
Wire Wire Line
	8650 1200 10100 1200
Wire Wire Line
	8650 1300 10100 1300
Entry Wire Line
	10750 1400 10850 1300
Wire Wire Line
	8650 1400 10750 1400
Text Label 10650 1400 2    60   ~ 0
A12
Wire Wire Line
	8650 1500 11050 1500
Wire Wire Line
	11050 1500 11050 6250
Wire Wire Line
	11050 6250 9250 6250
Wire Wire Line
	9750 6700 8950 6700
Wire Wire Line
	9750 6350 9750 6700
Wire Wire Line
	9750 6350 9250 6350
Wire Wire Line
	8950 6600 9750 6600
Connection ~ 9750 6600
Wire Wire Line
	7650 4900 10750 4900
Wire Wire Line
	10750 4900 10750 2650
Wire Wire Line
	10750 2650 9550 2650
Wire Wire Line
	7650 5350 7850 5350
Wire Wire Line
	7650 5350 7650 4900
Wire Wire Line
	10000 2100 10000 3150
Wire Wire Line
	10000 2100 6850 2100
Wire Wire Line
	6850 2100 6850 1600
Connection ~ 6850 1600
Wire Wire Line
	10000 3150 9550 3150
Wire Wire Line
	7850 5450 7500 5450
Wire Wire Line
	7500 5450 7500 4800
Wire Wire Line
	7500 4800 10650 4800
Wire Wire Line
	10650 4800 10650 2400
Wire Wire Line
	10650 2400 9550 2400
Wire Wire Line
	7800 4400 7800 4700
Wire Wire Line
	7800 4700 10550 4700
Wire Wire Line
	10550 4700 10550 3050
Wire Wire Line
	10550 3050 9550 3050
Connection ~ 5250 4400
Wire Wire Line
	7400 3100 8050 3100
Wire Wire Line
	7900 2200 7900 3100
Connection ~ 7900 3100
Wire Wire Line
	7200 2600 7200 2600
Wire Wire Line
	7200 2350 7200 5950
Wire Wire Line
	7200 2350 8050 2350
Wire Wire Line
	7300 2600 7300 6100
Wire Wire Line
	7300 2600 8050 2600
Wire Wire Line
	9300 4100 5600 4100
Connection ~ 5600 4100
Wire Wire Line
	9300 4200 9100 4200
Wire Wire Line
	9100 4200 9100 3650
Wire Wire Line
	9100 3650 9700 3650
Connection ~ 9700 3650
Wire Wire Line
	8650 1700 10100 1700
Wire Wire Line
	10100 1700 10100 3550
Wire Wire Line
	10100 3550 9000 3550
Wire Wire Line
	9000 3550 9000 4300
Wire Wire Line
	9000 4300 9300 4300
$Comp
L VCC #PWR011
U 1 1 59E39DC7
P 8900 4350
F 0 "#PWR011" H 8900 4450 30  0001 C CNN
F 1 "VCC" H 8900 4450 30  0000 C CNN
F 2 "" H 8900 4350 60  0000 C CNN
F 3 "" H 8900 4350 60  0000 C CNN
	1    8900 4350
	1    0    0    -1  
$EndComp
Wire Wire Line
	9300 4400 8900 4400
Wire Wire Line
	8900 4400 8900 4350
Wire Wire Line
	4150 6450 7400 6450
Wire Wire Line
	7400 6450 7400 3100
Wire Wire Line
	7300 6100 4150 6100
Wire Wire Line
	7300 2750 7300 2750
Wire Wire Line
	7200 5950 4150 5950
Text HLabel 1250 5900 0    60   Output ~ 0
ROM0
Text HLabel 1250 6100 0    60   Output ~ 0
ROM1
Text HLabel 1250 6300 0    60   Output ~ 0
ROM2
Text HLabel 1250 6500 0    60   Output ~ 0
ROM3
Wire Wire Line
	2450 5900 1250 5900
Wire Wire Line
	2450 6100 1250 6100
Wire Wire Line
	1250 6300 2450 6300
Wire Wire Line
	2450 6500 1250 6500
Entry Wire Line
	10750 1600 10850 1500
Wire Wire Line
	8650 1600 10750 1600
Text Label 10500 1600 0    60   ~ 0
A13
Text Label 9750 1700 0    60   ~ 0
OP2
Text Label 9750 1500 0    60   ~ 0
LATCH
$Comp
L VCC #PWR012
U 1 1 59EC56C8
P 7600 6500
F 0 "#PWR012" H 7600 6600 30  0001 C CNN
F 1 "VCC" H 7600 6600 30  0000 C CNN
F 2 "" H 7600 6500 60  0000 C CNN
F 3 "" H 7600 6500 60  0000 C CNN
	1    7600 6500
	1    0    0    -1  
$EndComp
Wire Wire Line
	8150 6600 7600 6600
Wire Wire Line
	7600 6600 7600 6500
Text HLabel 6400 6700 0    60   Input ~ 0
RESET
Wire Wire Line
	8150 6700 6400 6700
Text Label 6900 1000 0    60   ~ 0
A17
Text Label 6900 1100 0    60   ~ 0
ROMON
Text Label 6900 1200 0    60   ~ 0
UDS
Text Label 6900 1300 0    60   ~ 0
LDS
Text Label 6900 1400 0    60   ~ 0
RW
Text Label 6900 1700 0    60   ~ 0
A16
Text Label 6900 1800 0    60   ~ 0
A15
Text Label 6900 1900 0    60   ~ 0
A14
Text Label 2800 4400 0    60   ~ 0
MEMSEL
Text Label 4350 6450 0    60   ~ 0
ROMSEL
Text Label 4350 5950 0    60   ~ 0
LD1A19
Text Label 4350 6100 0    60   ~ 0
LD0A18
Text Label 9350 4700 0    60   ~ 0
MEMSEL
Text Label 6000 5750 0    60   ~ 0
OP4
Text Label 8300 4900 0    60   ~ 0
LD0
Text Label 8300 4800 0    60   ~ 0
LD1
Text Label 10400 2650 0    60   ~ 0
LD0
Text Label 10400 2400 0    60   ~ 0
LD1
Text Label 10150 3050 0    60   ~ 0
MEMSEL
Text Label 9050 4300 0    60   ~ 0
OP2
Text Label 8700 4100 0    60   ~ 0
OP4
$EndSCHEMATC
