EESchema Schematic File Version 2
LIBS:power
LIBS:device
LIBS:transistors
LIBS:conn
LIBS:linear
LIBS:regul
LIBS:74xx
LIBS:cmos4000
LIBS:adc-dac
LIBS:memory
LIBS:xilinx
LIBS:special
LIBS:microcontrollers
LIBS:dsp
LIBS:microchip
LIBS:analog_switches
LIBS:motorola
LIBS:texas
LIBS:intel
LIBS:audio
LIBS:interface
LIBS:digital-audio
LIBS:philips
LIBS:display
LIBS:cypress
LIBS:siliconi
LIBS:opto
LIBS:atmel
LIBS:contrib
LIBS:valves
LIBS:aromix
LIBS:aromix-cache
EELAYER 27 0
EELAYER END
$Descr A4 11693 8268
encoding utf-8
Sheet 2 4
Title "Applix 1616 EPROM Card"
Date "24 oct 2017"
Rev "2.2"
Comp "JMOS"
Comment1 ""
Comment2 ""
Comment3 ""
Comment4 ""
$EndDescr
$Comp
L +5V #PWR01
U 1 1 5784D2C3
P 7300 1550
F 0 "#PWR01" H 7300 1640 20  0001 C CNN
F 1 "+5V" H 7300 1640 30  0000 C CNN
F 2 "" H 7300 1550 60  0000 C CNN
F 3 "" H 7300 1550 60  0000 C CNN
	1    7300 1550
	1    0    0    -1  
$EndComp
$Comp
L APPIX-BUS J1
U 1 1 5784FC47
P 5500 1850
F 0 "J1" H 5600 2150 60  0000 C CNN
F 1 "APPIX-BUS" H 5850 2050 60  0000 C CNN
F 2 "~" H 5150 2050 60  0000 C CNN
F 3 "" H 5150 2050 60  0000 C CNN
	1    5500 1850
	1    0    0    -1  
$EndComp
$Comp
L +5V #PWR02
U 1 1 57879FCC
P 5250 1550
F 0 "#PWR02" H 5250 1640 20  0001 C CNN
F 1 "+5V" H 5250 1640 30  0000 C CNN
F 2 "" H 5250 1550 60  0000 C CNN
F 3 "" H 5250 1550 60  0000 C CNN
	1    5250 1550
	1    0    0    -1  
$EndComp
$Comp
L GND #PWR03
U 1 1 5787A038
P 7350 5900
F 0 "#PWR03" H 7350 5900 30  0001 C CNN
F 1 "GND" H 7350 5830 30  0001 C CNN
F 2 "" H 7350 5900 60  0000 C CNN
F 3 "" H 7350 5900 60  0000 C CNN
	1    7350 5900
	1    0    0    -1  
$EndComp
$Comp
L GND #PWR04
U 1 1 5787A047
P 5200 5950
F 0 "#PWR04" H 5200 5950 30  0001 C CNN
F 1 "GND" H 5200 5880 30  0001 C CNN
F 2 "" H 5200 5950 60  0000 C CNN
F 3 "" H 5200 5950 60  0000 C CNN
	1    5200 5950
	1    0    0    -1  
$EndComp
$Comp
L 74LS245 U19
U 1 1 5787A1C2
P 9300 2050
F 0 "U19" H 9400 2625 60  0000 L BNN
F 1 "74LS245" H 9350 1475 60  0000 L TNN
F 2 "~" H 9300 2050 60  0000 C CNN
F 3 "~" H 9300 2050 60  0000 C CNN
	1    9300 2050
	-1   0    0    -1  
$EndComp
$Comp
L 74LS244 U16
U 1 1 5787A1D1
P 9300 3900
F 0 "U16" H 9250 4500 60  0000 C CNN
F 1 "74LS244" H 9050 3250 60  0000 C CNN
F 2 "~" H 9300 3900 60  0000 C CNN
F 3 "~" H 9300 3900 60  0000 C CNN
	1    9300 3900
	1    0    0    -1  
$EndComp
$Comp
L 74LS244 U15
U 1 1 5787A1E0
P 9300 6100
F 0 "U15" H 9000 6700 60  0000 C CNN
F 1 "74LS244" H 9400 5700 60  0000 C CNN
F 2 "~" H 9300 6100 60  0000 C CNN
F 3 "~" H 9300 6100 60  0000 C CNN
	1    9300 6100
	1    0    0    -1  
$EndComp
$Comp
L 74LS244 U14
U 1 1 5787A1EF
P 3450 5150
F 0 "U14" H 3450 5750 60  0000 C CNN
F 1 "74LS244" H 3450 4500 60  0000 C CNN
F 2 "~" H 3450 5150 60  0000 C CNN
F 3 "~" H 3450 5150 60  0000 C CNN
	1    3450 5150
	-1   0    0    -1  
$EndComp
$Comp
L 74LS245 U18
U 1 1 5787A1FE
P 3450 2050
F 0 "U18" H 3550 2625 60  0000 L BNN
F 1 "74LS245" H 3500 1475 60  0000 L TNN
F 2 "~" H 3450 2050 60  0000 C CNN
F 3 "~" H 3450 2050 60  0000 C CNN
	1    3450 2050
	1    0    0    -1  
$EndComp
Entry Wire Line
	7550 2950 7650 2850
Entry Wire Line
	7550 2850 7650 2750
Entry Wire Line
	7550 2750 7650 2650
Entry Wire Line
	7550 2650 7650 2550
Entry Wire Line
	7550 2550 7650 2450
Entry Wire Line
	7550 2450 7650 2350
Entry Wire Line
	7550 2350 7650 2250
Entry Wire Line
	7550 2250 7650 2150
Text Label 7400 2350 0    60   ~ 0
D3
Text Label 7400 2250 0    60   ~ 0
D1
Text Label 7400 2450 0    60   ~ 0
D5
Text Label 7400 2550 0    60   ~ 0
D7
Text Label 7400 2650 0    60   ~ 0
D9
Text Label 7400 2750 0    60   ~ 0
D11
Text Label 7400 2850 0    60   ~ 0
D13
Text Label 7400 2950 0    60   ~ 0
D15
Entry Wire Line
	7650 1450 7750 1550
Entry Wire Line
	7650 1550 7750 1650
Entry Wire Line
	7650 1650 7750 1750
Entry Wire Line
	7650 1750 7750 1850
Entry Wire Line
	7650 1850 7750 1950
Entry Wire Line
	7650 1950 7750 2050
Entry Wire Line
	7650 2050 7750 2150
Entry Wire Line
	7650 2150 7750 2250
Text Label 7800 1550 0    60   ~ 0
D0
Text Label 7800 1650 0    60   ~ 0
D1
Text Label 7800 1750 0    60   ~ 0
D2
Text Label 7800 1850 0    60   ~ 0
D3
Text Label 7800 1950 0    60   ~ 0
D4
Text Label 7800 2050 0    60   ~ 0
D5
Text Label 7800 2150 0    60   ~ 0
D6
Text Label 7800 2250 0    60   ~ 0
D7
Entry Wire Line
	4900 2150 5000 2250
Entry Wire Line
	4900 2250 5000 2350
Entry Wire Line
	4900 2350 5000 2450
Entry Wire Line
	4900 2450 5000 2550
Entry Wire Line
	4900 2550 5000 2650
Entry Wire Line
	4900 2650 5000 2750
Entry Wire Line
	4900 2750 5000 2850
Entry Wire Line
	4900 2850 5000 2950
Text Label 5050 2250 0    60   ~ 0
D0
Text Label 5050 2350 0    60   ~ 0
D2
Text Label 5050 2450 0    60   ~ 0
D4
Text Label 5000 2550 0    60   ~ 0
D6
Text Label 5000 2650 0    60   ~ 0
D8
Text Label 5000 2750 0    60   ~ 0
D10
Text Label 5000 2850 0    60   ~ 0
D12
Text Label 5000 2950 0    60   ~ 0
D14
Entry Wire Line
	4800 1550 4900 1450
Entry Wire Line
	4800 1650 4900 1550
Entry Wire Line
	4800 1750 4900 1650
Entry Wire Line
	4800 1850 4900 1750
Entry Wire Line
	4800 1950 4900 1850
Entry Wire Line
	4800 2050 4900 1950
Entry Wire Line
	4800 2150 4900 2050
Entry Wire Line
	4800 2250 4900 2150
Text Label 4600 1550 0    60   ~ 0
D8
Text Label 4600 1650 0    60   ~ 0
D9
Text Label 4600 1750 0    60   ~ 0
D10
Text Label 4600 1850 0    60   ~ 0
D11
Text Label 4600 1950 0    60   ~ 0
D12
Text Label 4600 2050 0    60   ~ 0
D13
Text Label 4600 2150 0    60   ~ 0
D14
Text Label 4600 2250 0    60   ~ 0
D15
$Comp
L 74LS367 U17
U 1 1 578B3A06
P 3450 3450
F 0 "U17" H 3100 3950 60  0000 C CNN
F 1 "74LS367" H 3250 2900 60  0000 C CNN
F 2 "~" H 3450 3450 60  0000 C CNN
F 3 "~" H 3450 3450 60  0000 C CNN
	1    3450 3450
	-1   0    0    -1  
$EndComp
Entry Wire Line
	4900 3150 5000 3050
Entry Wire Line
	4800 3450 4900 3550
Text Label 5000 3050 0    60   ~ 0
-AS
Text Label 4600 3450 0    60   ~ 0
-AS
Entry Wire Line
	4900 3250 5000 3150
Text Label 5000 3150 0    60   ~ 0
-LDS
Entry Wire Line
	4900 3650 5000 3550
Entry Wire Line
	4800 3050 4900 3150
Entry Wire Line
	4800 3250 4900 3350
Text Label 4550 3050 0    60   ~ 0
-LDS
Text Label 5000 3550 0    60   ~ 0
-RESET
Text Label 4450 3250 0    60   ~ 0
-RESET
Entry Wire Line
	7800 3050 7900 2950
Text Label 7400 3050 0    60   ~ 0
-UDS
Entry Wire Line
	4800 3550 4900 3650
Text Label 4550 3550 0    60   ~ 0
-UDS
Entry Wire Line
	7800 3150 7900 3050
Text Label 7400 3150 0    60   ~ 0
R/W
Entry Wire Line
	4800 3150 4900 3250
Text Label 4600 3150 0    60   ~ 0
R/W
Text Label 7400 3250 0    60   ~ 0
-EDTACK
Entry Wire Line
	8050 4050 8150 4150
Entry Wire Line
	8050 4150 8150 4250
Entry Wire Line
	8050 4250 8150 4350
Entry Wire Line
	8050 4350 8150 4450
Entry Wire Line
	8050 4450 8150 4550
Entry Wire Line
	8050 4550 8150 4650
Entry Wire Line
	8050 4650 8150 4750
Entry Wire Line
	8050 4750 8150 4850
Entry Wire Line
	8050 4850 8150 4950
Entry Wire Line
	8050 4950 8150 5050
Entry Wire Line
	8050 5050 8150 5150
Entry Wire Line
	8050 5150 8150 5250
Entry Wire Line
	4700 4250 4800 4150
Entry Wire Line
	4700 4350 4800 4250
Entry Wire Line
	4700 4450 4800 4350
Entry Wire Line
	4700 4550 4800 4450
Entry Wire Line
	4700 4650 4800 4550
Entry Wire Line
	4700 4750 4800 4650
Entry Wire Line
	4700 4850 4800 4750
Entry Wire Line
	4700 4950 4800 4850
Entry Wire Line
	4700 5050 4800 4950
Entry Wire Line
	4700 5150 4800 5050
Entry Wire Line
	4700 5250 4800 5150
Text Label 4950 4150 0    60   ~ 0
A22
Text Label 4950 4250 0    60   ~ 0
A20
Text Label 4950 4350 0    60   ~ 0
A18
Text Label 4950 4450 0    60   ~ 0
A16
Text Label 4950 4550 0    60   ~ 0
A14
Text Label 4950 4650 0    60   ~ 0
A12
Text Label 4950 4750 0    60   ~ 0
A10
Text Label 4950 4850 0    60   ~ 0
A8
Text Label 4950 4950 0    60   ~ 0
A6
Text Label 4950 5050 0    60   ~ 0
A4
Text Label 4950 5150 0    60   ~ 0
A2
Text Label 7700 4050 0    60   ~ 0
A23
Text Label 7700 4150 0    60   ~ 0
A21
Text Label 7700 4250 0    60   ~ 0
A19
Text Label 7700 4350 0    60   ~ 0
A17
Text Label 7700 4450 0    60   ~ 0
A15
Text Label 7700 4550 0    60   ~ 0
A13
Text Label 7700 4650 0    60   ~ 0
A11
Text Label 7700 4750 0    60   ~ 0
A9
Text Label 7700 4850 0    60   ~ 0
A7
Text Label 7700 4950 0    60   ~ 0
A5
Text Label 7700 5050 0    60   ~ 0
A3
Text Label 7700 5150 0    60   ~ 0
A1
Entry Wire Line
	8150 3500 8250 3400
Entry Wire Line
	8150 3600 8250 3500
Entry Wire Line
	8150 3700 8250 3600
Entry Wire Line
	8150 3800 8250 3700
Entry Wire Line
	8150 3900 8250 3800
Entry Wire Line
	8150 4000 8250 3900
Entry Wire Line
	8150 4100 8250 4000
Text Label 8300 3400 0    60   ~ 0
A17
Text Label 8300 3500 0    60   ~ 0
A18
Text Label 8300 3600 0    60   ~ 0
A19
Text Label 8300 3700 0    60   ~ 0
A20
Text Label 8300 3800 0    60   ~ 0
A21
Text Label 8300 3900 0    60   ~ 0
A22
Text Label 8300 4000 0    60   ~ 0
A23
Entry Wire Line
	8150 6200 8250 6300
Entry Wire Line
	8150 6100 8250 6200
Entry Wire Line
	8150 6000 8250 6100
Entry Wire Line
	8150 5900 8250 6000
Entry Wire Line
	8150 5800 8250 5900
Entry Wire Line
	8150 5700 8250 5800
Entry Wire Line
	8150 5600 8250 5700
Entry Wire Line
	8150 5500 8250 5600
Text Label 8300 5600 0    60   ~ 0
A9
Text Label 8300 5700 0    60   ~ 0
A10
Text Label 8300 5800 0    60   ~ 0
A11
Text Label 8300 5900 0    60   ~ 0
A12
Text Label 8300 6000 0    60   ~ 0
A13
Text Label 8300 6100 0    60   ~ 0
A14
Text Label 8300 6200 0    60   ~ 0
A15
Text Label 8300 6300 0    60   ~ 0
A16
Entry Wire Line
	4600 4650 4700 4750
Entry Wire Line
	4600 4750 4700 4850
Entry Wire Line
	4600 4850 4700 4950
Entry Wire Line
	4600 4950 4700 5050
Entry Wire Line
	4600 5050 4700 5150
Entry Wire Line
	4600 5150 4700 5250
Entry Wire Line
	4600 5250 4700 5350
Entry Wire Line
	4600 5350 4700 5450
Text Label 4450 4650 0    60   ~ 0
A1
Text Label 4450 4750 0    60   ~ 0
A2
Text Label 4450 4850 0    60   ~ 0
A3
Text Label 4450 4950 0    60   ~ 0
A4
Text Label 4450 5050 0    60   ~ 0
A5
Text Label 4450 5150 0    60   ~ 0
A6
Text Label 4450 5250 0    60   ~ 0
A7
Text Label 4450 5350 0    60   ~ 0
A8
Text Label 1350 3150 0    60   ~ 0
BRW
Entry Wire Line
	10500 1450 10400 1550
Entry Wire Line
	10500 1550 10400 1650
Entry Wire Line
	10500 1650 10400 1750
Entry Wire Line
	10500 1750 10400 1850
Entry Wire Line
	10500 1850 10400 1950
Entry Wire Line
	10500 1950 10400 2050
Entry Wire Line
	10500 2050 10400 2150
Entry Wire Line
	10500 2150 10400 2250
Entry Wire Line
	2100 1450 2200 1550
Entry Wire Line
	2100 1550 2200 1650
Entry Wire Line
	2100 1650 2200 1750
Entry Wire Line
	2100 1750 2200 1850
Entry Wire Line
	2100 1850 2200 1950
Entry Wire Line
	2100 1950 2200 2050
Entry Wire Line
	2100 2050 2200 2150
Entry Wire Line
	2100 2150 2200 2250
Text Label 2250 1550 0    60   ~ 0
BD8
Text Label 2250 1650 0    60   ~ 0
BD9
Text Label 2250 1750 0    60   ~ 0
BD10
Text Label 2250 1850 0    60   ~ 0
BD11
Text Label 2250 1950 0    60   ~ 0
BD12
Text Label 2250 2050 0    60   ~ 0
BD13
Text Label 2250 2150 0    60   ~ 0
BD14
Text Label 2250 2250 0    60   ~ 0
BD15
Text Label 10200 1650 0    60   ~ 0
BD1
Text Label 10200 1550 0    60   ~ 0
BD0
Text Label 10200 1750 0    60   ~ 0
BD2
Text Label 10200 1850 0    60   ~ 0
BD3
Text Label 10200 1950 0    60   ~ 0
BD4
Text Label 10200 2050 0    60   ~ 0
BD5
Text Label 10200 2150 0    60   ~ 0
BD6
Text Label 10200 2250 0    60   ~ 0
BD7
Text HLabel 1400 950  0    60   BiDi ~ 0
BD[0..15]
Text Label 1450 950  0    60   ~ 0
BD[0..15]
Text HLabel 10700 2550 2    60   Input ~ 0
CLDS
Entry Wire Line
	10400 3400 10500 3500
Entry Wire Line
	10400 3500 10500 3600
Entry Wire Line
	10400 3600 10500 3700
Entry Wire Line
	10400 3700 10500 3800
Entry Wire Line
	10400 3800 10500 3900
Entry Wire Line
	10400 3900 10500 4000
Entry Wire Line
	10400 4000 10500 4100
Entry Wire Line
	10400 5600 10500 5700
Entry Wire Line
	10400 5700 10500 5800
Entry Wire Line
	10400 5800 10500 5900
Entry Wire Line
	10400 5900 10500 6000
Entry Wire Line
	10400 6000 10500 6100
Entry Wire Line
	10400 6100 10500 6200
Entry Wire Line
	10400 6200 10500 6300
Entry Wire Line
	10400 6300 10500 6400
Entry Wire Line
	2200 4850 2100 4950
Entry Wire Line
	2200 4950 2100 5050
Entry Wire Line
	2200 5050 2100 5150
Entry Wire Line
	2200 5150 2100 5250
Entry Wire Line
	2200 5250 2100 5350
Entry Wire Line
	2200 4750 2100 4850
Entry Wire Line
	2200 4650 2100 4750
Entry Wire Line
	2100 5450 2200 5350
Text Label 2400 4650 2    60   ~ 0
BA1
Text Label 2400 4750 2    60   ~ 0
BA2
Text Label 2400 4850 2    60   ~ 0
BA3
Text Label 2400 4950 2    60   ~ 0
BA3
Text Label 2400 5050 2    60   ~ 0
BA4
Text Label 2400 5150 2    60   ~ 0
BA5
Text Label 2400 5250 2    60   ~ 0
BA6
Text Label 2400 5350 2    60   ~ 0
BA7
Text Label 10350 5600 2    60   ~ 0
BA9
Text Label 10350 5700 2    60   ~ 0
BA10
Text Label 10350 5800 2    60   ~ 0
BA11
Text Label 10350 5900 2    60   ~ 0
BA12
Text Label 10350 6000 2    60   ~ 0
BA13
Text Label 10350 6100 2    60   ~ 0
BA14
Text Label 10350 6200 2    60   ~ 0
BA15
Text Label 10350 6300 2    60   ~ 0
BA16
Text Label 10350 3400 2    60   ~ 0
BA17
Text Label 10350 3500 2    60   ~ 0
BA18
Text Label 10350 3600 2    60   ~ 0
BA19
Text Label 10350 3700 2    60   ~ 0
BA20
Text Label 10350 3800 2    60   ~ 0
BA21
Text Label 10350 3900 2    60   ~ 0
BA22
Text Label 10350 4000 2    60   ~ 0
BA23
Text HLabel 1350 6950 0    60   Output ~ 0
BA[1..23]
Text Label 1850 6950 2    60   ~ 0
BA[1..23]
Text HLabel 1150 3150 0    60   Output ~ 0
BRW
Text Label 10400 2450 0    60   ~ 0
BRW
Text HLabel 1150 2550 0    60   Input ~ 0
CUDS
Text HLabel 1150 3050 0    60   Output ~ 0
BLDS
$Comp
L C C19
U 1 1 58033A8D
P 1800 4250
F 0 "C19" H 1800 4350 40  0000 L CNN
F 1 "104" H 1806 4165 40  0000 L CNN
F 2 "~" H 1838 4100 30  0000 C CNN
F 3 "~" H 1800 4250 60  0000 C CNN
	1    1800 4250
	1    0    0    -1  
$EndComp
$Comp
L GND #PWR05
U 1 1 58033B5D
P 1800 4600
F 0 "#PWR05" H 1800 4600 30  0001 C CNN
F 1 "GND" H 1800 4530 30  0001 C CNN
F 2 "" H 1800 4600 60  0000 C CNN
F 3 "" H 1800 4600 60  0000 C CNN
	1    1800 4600
	1    0    0    -1  
$EndComp
Text HLabel 1150 3250 0    60   Output ~ 0
BRST
Text HLabel 1150 3450 0    60   Output ~ 0
BAS
Text HLabel 1150 3550 0    60   Output ~ 0
BUDS
$Comp
L GND #PWR06
U 1 1 58034297
P 4650 4050
F 0 "#PWR06" H 4650 4050 30  0001 C CNN
F 1 "GND" H 4650 3980 30  0001 C CNN
F 2 "" H 4650 4050 60  0000 C CNN
F 3 "" H 4650 4050 60  0000 C CNN
	1    4650 4050
	1    0    0    -1  
$EndComp
$Comp
L GND #PWR07
U 1 1 5803450B
P 8400 4650
F 0 "#PWR07" H 8400 4650 30  0001 C CNN
F 1 "GND" H 8400 4580 30  0001 C CNN
F 2 "" H 8400 4650 60  0000 C CNN
F 3 "" H 8400 4650 60  0000 C CNN
	1    8400 4650
	1    0    0    -1  
$EndComp
$Comp
L GND #PWR08
U 1 1 580346F5
P 8400 6800
F 0 "#PWR08" H 8400 6800 30  0001 C CNN
F 1 "GND" H 8400 6730 30  0001 C CNN
F 2 "" H 8400 6800 60  0000 C CNN
F 3 "" H 8400 6800 60  0000 C CNN
	1    8400 6800
	1    0    0    -1  
$EndComp
Wire Wire Line
	5500 1850 5200 1850
Wire Wire Line
	5200 1850 5200 5950
Wire Wire Line
	5500 1950 5250 1950
Wire Wire Line
	5250 1550 5250 5550
Wire Wire Line
	7000 1950 7300 1950
Wire Wire Line
	7300 1550 7300 5550
Wire Wire Line
	7000 5650 7350 5650
Wire Wire Line
	7350 1850 7350 5900
Wire Wire Line
	5200 5650 5500 5650
Wire Wire Line
	7000 1850 7350 1850
Connection ~ 7350 5650
Connection ~ 5200 5650
Wire Wire Line
	7300 5550 7000 5550
Connection ~ 7300 1950
Wire Wire Line
	5250 5550 5500 5550
Connection ~ 5250 1950
Wire Bus Line
	7650 1100 7650 2900
Wire Wire Line
	7550 2950 7000 2950
Wire Wire Line
	7000 2850 7550 2850
Wire Wire Line
	7000 2750 7550 2750
Wire Wire Line
	7000 2650 7550 2650
Wire Wire Line
	7000 2550 7550 2550
Wire Wire Line
	7000 2450 7550 2450
Wire Wire Line
	7000 2350 7550 2350
Wire Wire Line
	7000 2250 7550 2250
Wire Wire Line
	8600 1550 7750 1550
Wire Wire Line
	8600 1650 7750 1650
Wire Wire Line
	8600 1750 7750 1750
Wire Wire Line
	8600 1850 7750 1850
Wire Wire Line
	8600 1950 7750 1950
Wire Wire Line
	8600 2050 7750 2050
Wire Wire Line
	8600 2150 7750 2150
Wire Wire Line
	8600 2250 7750 2250
Wire Bus Line
	4900 1100 4900 2950
Wire Bus Line
	4900 1100 7650 1100
Wire Wire Line
	5500 2250 5000 2250
Wire Wire Line
	5500 2350 5000 2350
Wire Wire Line
	5500 2450 5000 2450
Wire Wire Line
	5500 2550 5000 2550
Wire Wire Line
	5500 2650 5000 2650
Wire Wire Line
	5500 2750 5000 2750
Wire Wire Line
	5500 2850 5000 2850
Wire Wire Line
	5500 2950 5000 2950
Wire Wire Line
	4150 1550 4800 1550
Wire Wire Line
	4150 1650 4800 1650
Wire Wire Line
	4150 1750 4800 1750
Wire Wire Line
	4150 1850 4800 1850
Wire Wire Line
	4150 1950 4800 1950
Wire Wire Line
	4150 2050 4800 2050
Wire Wire Line
	4150 2150 4800 2150
Wire Wire Line
	4150 2250 4800 2250
Wire Wire Line
	5000 3150 5500 3150
Wire Wire Line
	4800 3050 4150 3050
Wire Wire Line
	7000 3150 7800 3150
Wire Wire Line
	4800 3150 4150 3150
Wire Wire Line
	5000 3550 5500 3550
Wire Wire Line
	4800 3250 4150 3250
Wire Wire Line
	4150 3450 4800 3450
Wire Wire Line
	5000 3050 5500 3050
Wire Wire Line
	7000 3050 7800 3050
Wire Wire Line
	4800 3550 4150 3550
Wire Bus Line
	4900 3150 4900 6100
Wire Wire Line
	7000 3250 10700 3250
Wire Bus Line
	7900 2950 7900 6100
Wire Bus Line
	7900 6100 4900 6100
Wire Wire Line
	7000 4050 8050 4050
Wire Wire Line
	7000 4150 8050 4150
Wire Wire Line
	7000 4250 8050 4250
Wire Wire Line
	7000 4350 8050 4350
Wire Wire Line
	7000 4450 8050 4450
Wire Wire Line
	7000 4550 8050 4550
Wire Wire Line
	7000 4650 8050 4650
Wire Wire Line
	7000 4750 8050 4750
Wire Wire Line
	7000 4850 8050 4850
Wire Wire Line
	7000 4950 8050 4950
Wire Wire Line
	7000 5050 8050 5050
Wire Wire Line
	7000 5150 8050 5150
Wire Wire Line
	4800 4150 5500 4150
Wire Wire Line
	4800 4250 5500 4250
Wire Wire Line
	4800 4350 5500 4350
Wire Wire Line
	4800 4450 5500 4450
Wire Wire Line
	4800 4550 5500 4550
Wire Wire Line
	4800 4650 5500 4650
Wire Wire Line
	4800 4750 5500 4750
Wire Wire Line
	4800 4850 5500 4850
Wire Wire Line
	4800 4950 5500 4950
Wire Wire Line
	4800 5050 5500 5050
Wire Wire Line
	4800 5150 5500 5150
Wire Bus Line
	8150 3500 8150 6400
Wire Bus Line
	8150 6400 4700 6400
Wire Bus Line
	4700 6400 4700 4250
Wire Wire Line
	8250 3400 8600 3400
Wire Wire Line
	8250 3500 8600 3500
Wire Wire Line
	8250 3600 8600 3600
Wire Wire Line
	8250 3700 8600 3700
Wire Wire Line
	8250 3800 8600 3800
Wire Wire Line
	8250 3900 8600 3900
Wire Wire Line
	8250 4000 8600 4000
Wire Wire Line
	8250 5600 8600 5600
Wire Wire Line
	8600 5700 8250 5700
Wire Wire Line
	8250 5800 8600 5800
Wire Wire Line
	8600 5900 8250 5900
Wire Wire Line
	8250 6000 8600 6000
Wire Wire Line
	8600 6100 8250 6100
Wire Wire Line
	8250 6200 8600 6200
Wire Wire Line
	8600 6300 8250 6300
Wire Wire Line
	4150 4750 4600 4750
Wire Wire Line
	4150 4650 4600 4650
Wire Wire Line
	4600 4850 4150 4850
Wire Wire Line
	4150 4950 4600 4950
Wire Wire Line
	4150 5050 4600 5050
Wire Wire Line
	4150 5150 4600 5150
Wire Wire Line
	4150 5250 4600 5250
Wire Wire Line
	4150 5350 4600 5350
Wire Wire Line
	1150 3150 2750 3150
Connection ~ 2100 3150
Wire Wire Line
	10700 2450 10000 2450
Wire Wire Line
	2750 2450 2100 2450
Wire Wire Line
	2100 2450 2100 3150
Wire Bus Line
	2100 950  2100 2150
Wire Bus Line
	1400 950  10500 950 
Wire Bus Line
	10500 950  10500 2150
Wire Wire Line
	10000 1550 10400 1550
Wire Wire Line
	10000 1650 10400 1650
Wire Wire Line
	10000 1750 10400 1750
Wire Wire Line
	10400 1850 10000 1850
Wire Wire Line
	10400 1950 10000 1950
Wire Wire Line
	10400 2050 10000 2050
Wire Wire Line
	10400 2150 10000 2150
Wire Wire Line
	10400 2250 10000 2250
Wire Wire Line
	2750 1550 2200 1550
Wire Wire Line
	2200 1650 2750 1650
Wire Wire Line
	2750 1750 2200 1750
Wire Wire Line
	2200 1850 2750 1850
Wire Wire Line
	2750 1950 2200 1950
Wire Wire Line
	2200 2050 2750 2050
Wire Wire Line
	2750 2150 2200 2150
Wire Wire Line
	2200 2250 2750 2250
Wire Wire Line
	10000 2550 10700 2550
Wire Bus Line
	1350 6950 10500 6950
Wire Bus Line
	2100 4750 2100 6950
Wire Wire Line
	10000 3400 10400 3400
Wire Wire Line
	10000 3500 10400 3500
Wire Wire Line
	10000 3600 10400 3600
Wire Wire Line
	10000 3700 10400 3700
Wire Wire Line
	10000 3800 10400 3800
Wire Wire Line
	10000 3900 10400 3900
Wire Wire Line
	10000 4000 10400 4000
Wire Wire Line
	10000 5600 10400 5600
Wire Wire Line
	10000 5700 10400 5700
Wire Wire Line
	10000 5800 10400 5800
Wire Wire Line
	10000 5900 10400 5900
Wire Wire Line
	10000 6000 10400 6000
Wire Wire Line
	10000 6100 10400 6100
Wire Wire Line
	10000 6200 10400 6200
Wire Wire Line
	10000 6300 10400 6300
Wire Wire Line
	2750 4650 2200 4650
Wire Wire Line
	2200 4750 2750 4750
Wire Wire Line
	2750 4850 2200 4850
Wire Wire Line
	2200 4950 2750 4950
Wire Wire Line
	2750 5050 2200 5050
Wire Wire Line
	2200 5150 2750 5150
Wire Wire Line
	2750 5250 2200 5250
Wire Wire Line
	2750 5350 2200 5350
Wire Wire Line
	1150 2550 2750 2550
Wire Wire Line
	2750 3050 1150 3050
Wire Wire Line
	1150 3250 2750 3250
Wire Wire Line
	1800 3250 1800 4050
Wire Wire Line
	1800 4450 1800 4600
Connection ~ 1800 3250
Wire Wire Line
	2750 3450 1150 3450
Wire Wire Line
	2750 3550 1150 3550
Wire Wire Line
	4150 3750 4650 3750
Wire Wire Line
	4650 3750 4650 4050
Wire Wire Line
	4150 3850 4650 3850
Connection ~ 4650 3850
Wire Wire Line
	8600 4300 8400 4300
Wire Wire Line
	8400 4300 8400 4650
Wire Wire Line
	8600 4400 8400 4400
Connection ~ 8400 4400
Wire Wire Line
	8600 6500 8400 6500
Wire Wire Line
	8400 6500 8400 6800
Wire Wire Line
	8600 6600 8400 6600
Connection ~ 8400 6600
Wire Bus Line
	10500 6950 10500 3500
$Comp
L GND #PWR09
U 1 1 58034DB6
P 4400 5950
F 0 "#PWR09" H 4400 5950 30  0001 C CNN
F 1 "GND" H 4400 5880 30  0001 C CNN
F 2 "" H 4400 5950 60  0000 C CNN
F 3 "" H 4400 5950 60  0000 C CNN
	1    4400 5950
	1    0    0    -1  
$EndComp
Wire Wire Line
	4150 5550 4400 5550
Wire Wire Line
	4400 5550 4400 5950
Wire Wire Line
	4150 5650 4400 5650
Connection ~ 4400 5650
Text HLabel 10700 3250 2    60   3State ~ 0
EXTDATCK
$EndSCHEMATC
