PCBNEW-LibModule-V1  Sat 02 Sep 2017 17:31:16 AWST
# encoding utf-8
Units mm
$INDEX
PIN_ARRAY_40X2
$EndINDEX
$MODULE PIN_ARRAY_40X2
Po 0 0 0 15 59AA7A5A 00000000 ~~
Li PIN_ARRAY_40X2
Cd Double rangee de contacts 2 x 12 pins
Kw CONN
Sc 0
AR 
Op 0 0 0
T0 3.81 -2.54 1.016 1.016 0 0.27432 N V 21 N "REF*"
T1 8.89 0 1.016 1.016 0 0.2032 N V 21 N "PIN_ARRAY_40X2"
DS 1.27 -3.81 1.27 1.27 0.3048 21
DS -100.33 -3.81 -100.33 1.27 0.3048 21
DS -49.53 -3.81 1.27 -3.81 0.3048 21
DS -49.53 1.27 1.27 1.27 0.3048 21
DS -49.53 -3.81 -74.93 -3.81 0.3048 21
DS -49.53 1.27 -74.93 1.27 0.3048 21
DS -74.93 -3.81 -100.33 -3.81 0.3048 21
DS -74.93 1.27 -100.33 1.27 0.3048 21
$PAD
Sh "80" C 1.524 1.524 0 0 1800
Dr 1.016 0 0
At STD N 00E0FFFF
Ne 0 ""
Po -99.06 -2.54
$EndPAD
$PAD
Sh "79" C 1.524 1.524 0 0 1800
Dr 1.016 0 0
At STD N 00E0FFFF
Ne 0 ""
Po -99.06 0
$EndPAD
$PAD
Sh "78" C 1.524 1.524 0 0 1800
Dr 1.016 0 0
At STD N 00E0FFFF
Ne 0 ""
Po -96.52 -2.54
$EndPAD
$PAD
Sh "77" C 1.524 1.524 0 0 1800
Dr 1.016 0 0
At STD N 00E0FFFF
Ne 0 ""
Po -96.52 0
$EndPAD
$PAD
Sh "76" C 1.524 1.524 0 0 1800
Dr 1.016 0 0
At STD N 00E0FFFF
Ne 0 ""
Po -93.98 -2.54
$EndPAD
$PAD
Sh "75" C 1.524 1.524 0 0 1800
Dr 1.016 0 0
At STD N 00E0FFFF
Ne 0 ""
Po -93.98 0
$EndPAD
$PAD
Sh "74" C 1.524 1.524 0 0 1800
Dr 1.016 0 0
At STD N 00E0FFFF
Ne 0 ""
Po -91.44 -2.54
$EndPAD
$PAD
Sh "73" C 1.524 1.524 0 0 1800
Dr 1.016 0 0
At STD N 00E0FFFF
Ne 0 ""
Po -91.44 0
$EndPAD
$PAD
Sh "62" C 1.524 1.524 0 0 1800
Dr 1.016 0 0
At STD N 00E0FFFF
Ne 0 ""
Po -76.2 -2.54
$EndPAD
$PAD
Sh "61" C 1.524 1.524 0 0 1800
Dr 1.016 0 0
At STD N 00E0FFFF
Ne 0 ""
Po -76.2 0
$EndPAD
$PAD
Sh "48" C 1.524 1.524 0 0 1800
Dr 1.016 0 0
At STD N 00E0FFFF
Ne 0 ""
Po -58.42 -2.54
$EndPAD
$PAD
Sh "47" C 1.524 1.524 0 0 1800
Dr 1.016 0 0
At STD N 00E0FFFF
Ne 0 ""
Po -58.42 0
$EndPAD
$PAD
Sh "46" C 1.524 1.524 0 0 1800
Dr 1.016 0 0
At STD N 00E0FFFF
Ne 0 ""
Po -55.88 -2.54
$EndPAD
$PAD
Sh "45" C 1.524 1.524 0 0 1800
Dr 1.016 0 0
At STD N 00E0FFFF
Ne 0 ""
Po -55.88 0
$EndPAD
$PAD
Sh "44" C 1.524 1.524 0 0 1800
Dr 1.016 0 0
At STD N 00E0FFFF
Ne 0 ""
Po -53.34 -2.54
$EndPAD
$PAD
Sh "43" C 1.524 1.524 0 0 1800
Dr 1.016 0 0
At STD N 00E0FFFF
Ne 0 ""
Po -53.34 0
$EndPAD
$PAD
Sh "42" C 1.524 1.524 0 0 1800
Dr 1.016 0 0
At STD N 00E0FFFF
Ne 0 ""
Po -50.8 -2.54
$EndPAD
$PAD
Sh "41" C 1.524 1.524 0 0 1800
Dr 1.016 0 0
At STD N 00E0FFFF
Ne 0 ""
Po -50.8 0
$EndPAD
$PAD
Sh "30" C 1.524 1.524 0 0 1800
Dr 1.016 0 0
At STD N 00E0FFFF
Ne 0 ""
Po -35.56 -2.54
$EndPAD
$PAD
Sh "40" C 1.524 1.524 0 0 1800
Dr 1.016 0 0
At STD N 00E0FFFF
Ne 0 ""
Po -48.26 -2.54
$EndPAD
$PAD
Sh "39" C 1.524 1.524 0 0 1800
Dr 1.016 0 0
At STD N 00E0FFFF
Ne 0 ""
Po -48.26 0
$EndPAD
$PAD
Sh "9" C 1.524 1.524 0 0 1800
Dr 1.016 0 0
At STD N 00E0FFFF
Ne 0 ""
Po -10.16 0
$EndPAD
$PAD
Sh "7" C 1.524 1.524 0 0 1800
Dr 1.016 0 0
At STD N 00E0FFFF
Ne 0 ""
Po -7.62 0
$EndPAD
$PAD
Sh "5" C 1.524 1.524 0 0 1800
Dr 1.016 0 0
At STD N 00E0FFFF
Ne 0 ""
Po -5.08 0
$EndPAD
$PAD
Sh "3" C 1.524 1.524 0 0 1800
Dr 1.016 0 0
At STD N 00E0FFFF
Ne 0 ""
Po -2.54 0
$EndPAD
$PAD
Sh "37" C 1.524 1.524 0 0 1800
Dr 1.016 0 0
At STD N 00E0FFFF
Ne 0 ""
Po -45.72 0
$EndPAD
$PAD
Sh "35" C 1.524 1.524 0 0 1800
Dr 1.016 0 0
At STD N 00E0FFFF
Ne 0 ""
Po -43.18 0
$EndPAD
$PAD
Sh "38" C 1.524 1.524 0 0 1800
Dr 1.016 0 0
At STD N 00E0FFFF
Ne 0 ""
Po -45.72 -2.54
$EndPAD
$PAD
Sh "36" C 1.524 1.524 0 0 1800
Dr 1.016 0 0
At STD N 00E0FFFF
Ne 0 ""
Po -43.18 -2.54
$EndPAD
$PAD
Sh "34" C 1.524 1.524 0 0 1800
Dr 1.016 0 0
At STD N 00E0FFFF
Ne 0 ""
Po -40.64 -2.54
$EndPAD
$PAD
Sh "32" C 1.524 1.524 0 0 1800
Dr 1.016 0 0
At STD N 00E0FFFF
Ne 0 ""
Po -38.1 -2.54
$EndPAD
$PAD
Sh "28" C 1.524 1.524 0 0 1800
Dr 1.016 0 0
At STD N 00E0FFFF
Ne 0 ""
Po -33.02 -2.54
$EndPAD
$PAD
Sh "33" C 1.524 1.524 0 0 1800
Dr 1.016 0 0
At STD N 00E0FFFF
Ne 0 ""
Po -40.64 0
$EndPAD
$PAD
Sh "26" C 1.524 1.524 0 0 1800
Dr 1.016 0 0
At STD N 00E0FFFF
Ne 0 ""
Po -30.48 -2.54
$EndPAD
$PAD
Sh "24" C 1.524 1.524 0 0 1800
Dr 1.016 0 0
At STD N 00E0FFFF
Ne 0 ""
Po -27.94 -2.54
$EndPAD
$PAD
Sh "31" C 1.524 1.524 0 0 1800
Dr 1.016 0 0
At STD N 00E0FFFF
Ne 0 ""
Po -38.1 0
$EndPAD
$PAD
Sh "22" C 1.524 1.524 0 0 1800
Dr 1.016 0 0
At STD N 00E0FFFF
Ne 0 ""
Po -25.4 -2.54
$EndPAD
$PAD
Sh "29" C 1.524 1.524 0 0 1800
Dr 1.016 0 0
At STD N 00E0FFFF
Ne 0 ""
Po -35.56 0
$EndPAD
$PAD
Sh "20" C 1.524 1.524 0 0 1800
Dr 1.016 0 0
At STD N 00E0FFFF
Ne 0 ""
Po -22.86 -2.54
$EndPAD
$PAD
Sh "27" C 1.524 1.524 0 0 1800
Dr 1.016 0 0
At STD N 00E0FFFF
Ne 0 ""
Po -33.02 0
$EndPAD
$PAD
Sh "18" C 1.524 1.524 0 0 1800
Dr 1.016 0 0
At STD N 00E0FFFF
Ne 0 ""
Po -20.32 -2.54
$EndPAD
$PAD
Sh "25" C 1.524 1.524 0 0 1800
Dr 1.016 0 0
At STD N 00E0FFFF
Ne 0 ""
Po -30.48 0
$EndPAD
$PAD
Sh "16" C 1.524 1.524 0 0 1800
Dr 1.016 0 0
At STD N 00E0FFFF
Ne 0 ""
Po -17.78 -2.54
$EndPAD
$PAD
Sh "23" C 1.524 1.524 0 0 1800
Dr 1.016 0 0
At STD N 00E0FFFF
Ne 0 ""
Po -27.94 0
$EndPAD
$PAD
Sh "14" C 1.524 1.524 0 0 1800
Dr 1.016 0 0
At STD N 00E0FFFF
Ne 0 ""
Po -15.24 -2.54
$EndPAD
$PAD
Sh "21" C 1.524 1.524 0 0 1800
Dr 1.016 0 0
At STD N 00E0FFFF
Ne 0 ""
Po -25.4 0
$EndPAD
$PAD
Sh "12" C 1.524 1.524 0 0 1800
Dr 1.016 0 0
At STD N 00E0FFFF
Ne 0 ""
Po -12.7 -2.54
$EndPAD
$PAD
Sh "19" C 1.524 1.524 0 0 1800
Dr 1.016 0 0
At STD N 00E0FFFF
Ne 0 ""
Po -22.86 0
$EndPAD
$PAD
Sh "10" C 1.524 1.524 0 0 1800
Dr 1.016 0 0
At STD N 00E0FFFF
Ne 0 ""
Po -10.16 -2.54
$EndPAD
$PAD
Sh "17" C 1.524 1.524 0 0 1800
Dr 1.016 0 0
At STD N 00E0FFFF
Ne 0 ""
Po -20.32 0
$EndPAD
$PAD
Sh "8" C 1.524 1.524 0 0 1800
Dr 1.016 0 0
At STD N 00E0FFFF
Ne 0 ""
Po -7.62 -2.54
$EndPAD
$PAD
Sh "15" C 1.524 1.524 0 0 1800
Dr 1.016 0 0
At STD N 00E0FFFF
Ne 0 ""
Po -17.78 0
$EndPAD
$PAD
Sh "6" C 1.524 1.524 0 0 1800
Dr 1.016 0 0
At STD N 00E0FFFF
Ne 0 ""
Po -5.08 -2.54
$EndPAD
$PAD
Sh "13" C 1.524 1.524 0 0 1800
Dr 1.016 0 0
At STD N 00E0FFFF
Ne 0 ""
Po -15.24 0
$EndPAD
$PAD
Sh "4" C 1.524 1.524 0 0 1800
Dr 1.016 0 0
At STD N 00E0FFFF
Ne 0 ""
Po -2.54 -2.54
$EndPAD
$PAD
Sh "11" C 1.524 1.524 0 0 1800
Dr 1.016 0 0
At STD N 00E0FFFF
Ne 0 ""
Po -12.7 0
$EndPAD
$PAD
Sh "2" C 1.524 1.524 0 0 1800
Dr 1.016 0 0
At STD N 00E0FFFF
Ne 0 ""
Po 0 -2.54
$EndPAD
$PAD
Sh "1" R 1.524 1.524 0 0 1800
Dr 1.016 0 0
At STD N 00E0FFFF
Ne 0 ""
Po 0 0
$EndPAD
$PAD
Sh "49" C 1.524 1.524 0 0 1800
Dr 1.016 0 0
At STD N 00E0FFFF
Ne 0 ""
Po -60.96 0
$EndPAD
$PAD
Sh "50" C 1.524 1.524 0 0 1800
Dr 1.016 0 0
At STD N 00E0FFFF
Ne 0 ""
Po -60.96 -2.54
$EndPAD
$PAD
Sh "51" C 1.524 1.524 0 0 1800
Dr 1.016 0 0
At STD N 00E0FFFF
Ne 0 ""
Po -63.5 0
$EndPAD
$PAD
Sh "52" C 1.524 1.524 0 0 1800
Dr 1.016 0 0
At STD N 00E0FFFF
Ne 0 ""
Po -63.5 -2.54
$EndPAD
$PAD
Sh "53" C 1.524 1.524 0 0 1800
Dr 1.016 0 0
At STD N 00E0FFFF
Ne 0 ""
Po -66.04 0
$EndPAD
$PAD
Sh "54" C 1.524 1.524 0 0 1800
Dr 1.016 0 0
At STD N 00E0FFFF
Ne 0 ""
Po -66.04 -2.54
$EndPAD
$PAD
Sh "55" C 1.524 1.524 0 0 1800
Dr 1.016 0 0
At STD N 00E0FFFF
Ne 0 ""
Po -68.58 0
$EndPAD
$PAD
Sh "56" C 1.524 1.524 0 0 1800
Dr 1.016 0 0
At STD N 00E0FFFF
Ne 0 ""
Po -68.58 -2.54
$EndPAD
$PAD
Sh "57" C 1.524 1.524 0 0 1800
Dr 1.016 0 0
At STD N 00E0FFFF
Ne 0 ""
Po -71.12 0
$EndPAD
$PAD
Sh "58" C 1.524 1.524 0 0 1800
Dr 1.016 0 0
At STD N 00E0FFFF
Ne 0 ""
Po -71.12 -2.54
$EndPAD
$PAD
Sh "59" C 1.524 1.524 0 0 1800
Dr 1.016 0 0
At STD N 00E0FFFF
Ne 0 ""
Po -73.66 0
$EndPAD
$PAD
Sh "60" C 1.524 1.524 0 0 1800
Dr 1.016 0 0
At STD N 00E0FFFF
Ne 0 ""
Po -73.66 -2.54
$EndPAD
$PAD
Sh "63" C 1.524 1.524 0 0 1800
Dr 1.016 0 0
At STD N 00E0FFFF
Ne 0 ""
Po -78.74 0
$EndPAD
$PAD
Sh "64" C 1.524 1.524 0 0 1800
Dr 1.016 0 0
At STD N 00E0FFFF
Ne 0 ""
Po -78.74 -2.54
$EndPAD
$PAD
Sh "65" C 1.524 1.524 0 0 1800
Dr 1.016 0 0
At STD N 00E0FFFF
Ne 0 ""
Po -81.28 0
$EndPAD
$PAD
Sh "66" C 1.524 1.524 0 0 1800
Dr 1.016 0 0
At STD N 00E0FFFF
Ne 0 ""
Po -81.28 -2.54
$EndPAD
$PAD
Sh "67" C 1.524 1.524 0 0 1800
Dr 1.016 0 0
At STD N 00E0FFFF
Ne 0 ""
Po -83.82 0
$EndPAD
$PAD
Sh "68" C 1.524 1.524 0 0 1800
Dr 1.016 0 0
At STD N 00E0FFFF
Ne 0 ""
Po -83.82 -2.54
$EndPAD
$PAD
Sh "69" C 1.524 1.524 0 0 1800
Dr 1.016 0 0
At STD N 00E0FFFF
Ne 0 ""
Po -86.36 0
$EndPAD
$PAD
Sh "70" C 1.524 1.524 0 0 1800
Dr 1.016 0 0
At STD N 00E0FFFF
Ne 0 ""
Po -86.36 -2.54
$EndPAD
$PAD
Sh "71" C 1.524 1.524 0 0 1800
Dr 1.016 0 0
At STD N 00E0FFFF
Ne 0 ""
Po -88.9 0
$EndPAD
$PAD
Sh "72" C 1.524 1.524 0 0 1800
Dr 1.016 0 0
At STD N 00E0FFFF
Ne 0 ""
Po -88.9 -2.54
$EndPAD
$SHAPE3D
Na "pin_array/pins_array_30x2.wrl"
Sc 1 1 1
Of 0 0 0
Ro 0 0 0
$EndSHAPE3D
$EndMODULE PIN_ARRAY_40X2
$EndLIBRARY
