(module PIN_ARRAY_30X2 (layer F.Cu)
  (at 0 0)
  (descr "Double rangee de contacts 2 x 12 pins")
  (tags CONN)
  (fp_text reference REF* (at 0 -3.81) (layer F.SilkS)
    (effects (font (size 1.016 1.016) (thickness 0.27432)))
  )
  (fp_text value PIN_ARRAY_30X2 (at 0 3.81) (layer F.SilkS)
    (effects (font (size 1.016 1.016) (thickness 0.2032)))
  )
  (fp_line (start 12.7 2.54) (end 38.1 2.54) (layer F.SilkS) (width 0.3048))
  (fp_line (start 12.7 -2.54) (end 38.1 -2.54) (layer F.SilkS) (width 0.3048))
  (fp_line (start 12.7 2.54) (end -38.1 2.54) (layer F.SilkS) (width 0.3048))
  (fp_line (start 12.7 -2.54) (end -38.1 -2.54) (layer F.SilkS) (width 0.3048))
  (fp_line (start 38.1 -2.54) (end 38.1 2.54) (layer F.SilkS) (width 0.3048))
  (fp_line (start -38.1 -2.54) (end -38.1 2.54) (layer F.SilkS) (width 0.3048))
  (pad 1 thru_hole rect (at -36.83 1.27) (size 1.524 1.524) (drill 1.016)
    (layers *.Cu *.Mask F.SilkS)
  )
  (pad 2 thru_hole circle (at -36.83 -1.27) (size 1.524 1.524) (drill 1.016)
    (layers *.Cu *.Mask F.SilkS)
  )
  (pad 11 thru_hole circle (at -24.13 1.27) (size 1.524 1.524) (drill 1.016)
    (layers *.Cu *.Mask F.SilkS)
  )
  (pad 4 thru_hole circle (at -34.29 -1.27) (size 1.524 1.524) (drill 1.016)
    (layers *.Cu *.Mask F.SilkS)
  )
  (pad 13 thru_hole circle (at -21.59 1.27) (size 1.524 1.524) (drill 1.016)
    (layers *.Cu *.Mask F.SilkS)
  )
  (pad 6 thru_hole circle (at -31.75 -1.27) (size 1.524 1.524) (drill 1.016)
    (layers *.Cu *.Mask F.SilkS)
  )
  (pad 15 thru_hole circle (at -19.05 1.27) (size 1.524 1.524) (drill 1.016)
    (layers *.Cu *.Mask F.SilkS)
  )
  (pad 8 thru_hole circle (at -29.21 -1.27) (size 1.524 1.524) (drill 1.016)
    (layers *.Cu *.Mask F.SilkS)
  )
  (pad 17 thru_hole circle (at -16.51 1.27) (size 1.524 1.524) (drill 1.016)
    (layers *.Cu *.Mask F.SilkS)
  )
  (pad 10 thru_hole circle (at -26.67 -1.27) (size 1.524 1.524) (drill 1.016)
    (layers *.Cu *.Mask F.SilkS)
  )
  (pad 19 thru_hole circle (at -13.97 1.27) (size 1.524 1.524) (drill 1.016)
    (layers *.Cu *.Mask F.SilkS)
  )
  (pad 12 thru_hole circle (at -24.13 -1.27) (size 1.524 1.524) (drill 1.016)
    (layers *.Cu *.Mask F.SilkS)
  )
  (pad 21 thru_hole circle (at -11.43 1.27) (size 1.524 1.524) (drill 1.016)
    (layers *.Cu *.Mask F.SilkS)
  )
  (pad 14 thru_hole circle (at -21.59 -1.27) (size 1.524 1.524) (drill 1.016)
    (layers *.Cu *.Mask F.SilkS)
  )
  (pad 23 thru_hole circle (at -8.89 1.27) (size 1.524 1.524) (drill 1.016)
    (layers *.Cu *.Mask F.SilkS)
  )
  (pad 16 thru_hole circle (at -19.05 -1.27) (size 1.524 1.524) (drill 1.016)
    (layers *.Cu *.Mask F.SilkS)
  )
  (pad 25 thru_hole circle (at -6.35 1.27) (size 1.524 1.524) (drill 1.016)
    (layers *.Cu *.Mask F.SilkS)
  )
  (pad 18 thru_hole circle (at -16.51 -1.27) (size 1.524 1.524) (drill 1.016)
    (layers *.Cu *.Mask F.SilkS)
  )
  (pad 27 thru_hole circle (at -3.81 1.27) (size 1.524 1.524) (drill 1.016)
    (layers *.Cu *.Mask F.SilkS)
  )
  (pad 20 thru_hole circle (at -13.97 -1.27) (size 1.524 1.524) (drill 1.016)
    (layers *.Cu *.Mask F.SilkS)
  )
  (pad 29 thru_hole circle (at -1.27 1.27) (size 1.524 1.524) (drill 1.016)
    (layers *.Cu *.Mask F.SilkS)
  )
  (pad 22 thru_hole circle (at -11.43 -1.27) (size 1.524 1.524) (drill 1.016)
    (layers *.Cu *.Mask F.SilkS)
  )
  (pad 31 thru_hole circle (at 1.27 1.27) (size 1.524 1.524) (drill 1.016)
    (layers *.Cu *.Mask F.SilkS)
  )
  (pad 24 thru_hole circle (at -8.89 -1.27) (size 1.524 1.524) (drill 1.016)
    (layers *.Cu *.Mask F.SilkS)
  )
  (pad 26 thru_hole circle (at -6.35 -1.27) (size 1.524 1.524) (drill 1.016)
    (layers *.Cu *.Mask F.SilkS)
  )
  (pad 33 thru_hole circle (at 3.81 1.27) (size 1.524 1.524) (drill 1.016)
    (layers *.Cu *.Mask F.SilkS)
  )
  (pad 28 thru_hole circle (at -3.81 -1.27) (size 1.524 1.524) (drill 1.016)
    (layers *.Cu *.Mask F.SilkS)
  )
  (pad 32 thru_hole circle (at 1.27 -1.27) (size 1.524 1.524) (drill 1.016)
    (layers *.Cu *.Mask F.SilkS)
  )
  (pad 34 thru_hole circle (at 3.81 -1.27) (size 1.524 1.524) (drill 1.016)
    (layers *.Cu *.Mask F.SilkS)
  )
  (pad 36 thru_hole circle (at 6.35 -1.27) (size 1.524 1.524) (drill 1.016)
    (layers *.Cu *.Mask F.SilkS)
  )
  (pad 38 thru_hole circle (at 8.89 -1.27) (size 1.524 1.524) (drill 1.016)
    (layers *.Cu *.Mask F.SilkS)
  )
  (pad 35 thru_hole circle (at 6.35 1.27) (size 1.524 1.524) (drill 1.016)
    (layers *.Cu *.Mask F.SilkS)
  )
  (pad 37 thru_hole circle (at 8.89 1.27) (size 1.524 1.524) (drill 1.016)
    (layers *.Cu *.Mask F.SilkS)
  )
  (pad 3 thru_hole circle (at -34.29 1.27) (size 1.524 1.524) (drill 1.016)
    (layers *.Cu *.Mask F.SilkS)
  )
  (pad 5 thru_hole circle (at -31.75 1.27) (size 1.524 1.524) (drill 1.016)
    (layers *.Cu *.Mask F.SilkS)
  )
  (pad 7 thru_hole circle (at -29.21 1.27) (size 1.524 1.524) (drill 1.016)
    (layers *.Cu *.Mask F.SilkS)
  )
  (pad 9 thru_hole circle (at -26.67 1.27) (size 1.524 1.524) (drill 1.016)
    (layers *.Cu *.Mask F.SilkS)
  )
  (pad 39 thru_hole circle (at 11.43 1.27) (size 1.524 1.524) (drill 1.016)
    (layers *.Cu *.Mask F.SilkS)
  )
  (pad 40 thru_hole circle (at 11.43 -1.27) (size 1.524 1.524) (drill 1.016)
    (layers *.Cu *.Mask F.SilkS)
  )
  (pad 30 thru_hole circle (at -1.27 -1.27) (size 1.524 1.524) (drill 1.016)
    (layers *.Cu *.Mask F.SilkS)
  )
  (pad 41 thru_hole circle (at 13.97 1.27) (size 1.524 1.524) (drill 1.016)
    (layers *.Cu *.Mask F.SilkS)
  )
  (pad 42 thru_hole circle (at 13.97 -1.27) (size 1.524 1.524) (drill 1.016)
    (layers *.Cu *.Mask F.SilkS)
  )
  (pad 43 thru_hole circle (at 16.51 1.27) (size 1.524 1.524) (drill 1.016)
    (layers *.Cu *.Mask F.SilkS)
  )
  (pad 44 thru_hole circle (at 16.51 -1.27) (size 1.524 1.524) (drill 1.016)
    (layers *.Cu *.Mask F.SilkS)
  )
  (pad 45 thru_hole circle (at 19.05 1.27) (size 1.524 1.524) (drill 1.016)
    (layers *.Cu *.Mask F.SilkS)
  )
  (pad 46 thru_hole circle (at 19.05 -1.27) (size 1.524 1.524) (drill 1.016)
    (layers *.Cu *.Mask F.SilkS)
  )
  (pad 47 thru_hole circle (at 21.59 1.27) (size 1.524 1.524) (drill 1.016)
    (layers *.Cu *.Mask F.SilkS)
  )
  (pad 48 thru_hole circle (at 21.59 -1.27) (size 1.524 1.524) (drill 1.016)
    (layers *.Cu *.Mask F.SilkS)
  )
  (pad 49 thru_hole circle (at 24.13 1.27) (size 1.524 1.524) (drill 1.016)
    (layers *.Cu *.Mask F.SilkS)
  )
  (pad 50 thru_hole circle (at 24.13 -1.27) (size 1.524 1.524) (drill 1.016)
    (layers *.Cu *.Mask F.SilkS)
  )
  (pad 51 thru_hole circle (at 26.67 1.27) (size 1.524 1.524) (drill 1.016)
    (layers *.Cu *.Mask F.SilkS)
  )
  (pad 52 thru_hole circle (at 26.67 -1.27) (size 1.524 1.524) (drill 1.016)
    (layers *.Cu *.Mask F.SilkS)
  )
  (pad 53 thru_hole circle (at 29.21 1.27) (size 1.524 1.524) (drill 1.016)
    (layers *.Cu *.Mask F.SilkS)
  )
  (pad 54 thru_hole circle (at 29.21 -1.27) (size 1.524 1.524) (drill 1.016)
    (layers *.Cu *.Mask F.SilkS)
  )
  (pad 55 thru_hole circle (at 31.75 1.27) (size 1.524 1.524) (drill 1.016)
    (layers *.Cu *.Mask F.SilkS)
  )
  (pad 56 thru_hole circle (at 31.75 -1.27) (size 1.524 1.524) (drill 1.016)
    (layers *.Cu *.Mask F.SilkS)
  )
  (pad 57 thru_hole circle (at 34.29 1.27) (size 1.524 1.524) (drill 1.016)
    (layers *.Cu *.Mask F.SilkS)
  )
  (pad 58 thru_hole circle (at 34.29 -1.27) (size 1.524 1.524) (drill 1.016)
    (layers *.Cu *.Mask F.SilkS)
  )
  (pad 59 thru_hole circle (at 36.83 1.27) (size 1.524 1.524) (drill 1.016)
    (layers *.Cu *.Mask F.SilkS)
  )
  (pad 60 thru_hole circle (at 36.83 -1.27) (size 1.524 1.524) (drill 1.016)
    (layers *.Cu *.Mask F.SilkS)
  )
  (model pin_array/pins_array_30x2.wrl
    (at (xyz 0 0 0))
    (scale (xyz 1 1 1))
    (rotate (xyz 0 0 0))
  )
)
